<?xml version="1.0" encoding="utf-8"?>
<!-- Generator: Adobe Illustrator 16.0.0, SVG Export Plug-In . SVG Version: 6.00 Build 0)  -->
<!DOCTYPE svg PUBLIC "-//W3C//DTD SVG 1.1//EN" "http://www.w3.org/Graphics/SVG/1.1/DTD/svg11.dtd">
<svg version="1.1" xmlns="http://www.w3.org/2000/svg" xmlns:xlink="http://www.w3.org/1999/xlink" x="0px" y="0px" width="370px"
	 height="400px" viewBox="0 0 370 400" enable-background="new 0 0 370 400" xml:space="preserve">
<g id="base">
	<g>
		<path fill="#FFFFFF" d="M327.93,96.769v229.897h2.5V96.769c0-13.477-10.964-24.44-24.44-24.44h-68.638v2.5h68.638
			C318.087,74.829,327.93,84.671,327.93,96.769z"/>
		<path fill="#FFFFFF" d="M132.684,369.165H27.704c-12.098,0-21.94-9.844-21.94-21.941V96.769c0-12.098,9.842-21.94,21.94-21.94
			h71.647v-2.5H27.704c-13.477,0-24.44,10.964-24.44,24.44v250.455c0,13.477,10.964,24.441,24.44,24.441h104.98V369.165z"/>
	</g>
	<polygon fill="#FFFFFF" points="169.622,368.862 159.596,368.862 159.596,358.837 156.596,358.837 156.596,368.862 
		146.571,368.862 146.571,371.862 156.596,371.862 156.596,381.888 159.596,381.888 159.596,371.862 169.622,371.862 	"/>
</g>
<g id="impresos">
	<g>
		<g>
			<g>
				<g>
					<g>
						<path fill="#FFFFFF" d="M170.127,37.368c-15.536,1.5-32.308,3.178-33.543,3.266l-1.06,0.089l6.797,31.689
							c1.766,8.386,3.708,17.125,5.208,24.274c0.707,0.177,1.324,0.795,1.589,1.766c0.265,0.971,0.794,1.942,1.324,2.825
							c-1.677-7.68-3.972-18.713-6.267-29.218l-6.355-29.66c4.148-0.441,18.802-1.854,32.484-3.178l25.335-2.472
							c-0.706,8.739-4.944,62.409-5.473,69.735l-34.25,3.354c0.353,0.618,0.618,1.235,0.971,1.765l35.133-3.443l0.089-0.793
							c0.176-1.854,5.472-69.029,5.648-71.677l0.089-1.147L170.127,37.368z"/>
					</g>
					<g>
						<path fill="#FFFFFF" d="M156.18,93.949l-0.176,1.414l16.771-1.766l-0.177-2.383c0,0-12.005,1.324-14.212,1.5
							c0.265-2.736,5.649-54.11,5.649-54.11l-2.03-0.265L156.18,93.949z"/>
					</g>
					<g>
						<path fill="#FFFFFF" d="M178.249,51.227c-0.089-1.236-0.618-2.295-1.413-3.09c-0.795-0.794-1.854-1.147-2.914-1.06
							c-1.059,0.089-2.03,0.707-2.736,1.589c-0.706,0.971-1.059,2.119-0.971,3.354c0.176,2.472,2.118,4.326,4.414,4.149
							c1.06-0.088,2.03-0.706,2.736-1.589c0.618-0.794,0.971-1.854,0.971-2.913C178.249,51.491,178.249,51.314,178.249,51.227z"/>
					</g>
				</g>
			</g>
		</g>
		<g>
			<path fill="#FFFFFF" d="M116.37,108.073l20.832,38.31l30.542-16.595l-20.391-37.428l-4.855,2.648l-2.913-5.385L116.37,108.073z
				 M120.077,109.927l26.306-14.3l18.095,33.279l-26.305,14.3L120.077,109.927z M140.379,95.98l-16.418,8.915
				c0,0,14.388-11.563,14.83-11.828L140.379,95.98z"/>
			<path fill="#FFFFFF" d="M131.464,106.309c-0.353-0.266-0.883-0.354-1.324-0.089l-6.885,3.796
				c-0.529,0.354-0.795,1.059-0.442,1.589l3.884,7.151c0.265,0.441,0.706,0.706,1.148,0.618c0.176,0,0.265-0.088,0.441-0.176
				c0.265-0.177,0.53-0.441,0.618-0.707l3.001-10.946C131.994,107.102,131.817,106.662,131.464,106.309L131.464,106.309z
				 M127.315,115.047l-1.941-3.619l3.442-1.854L127.315,115.047z"/>
			<path fill="#FFFFFF" d="M156.887,119.637c-0.441,0.088-0.883,0.354-0.971,0.883l-3.266,10.682c-0.177,0.44,0,0.971,0.353,1.236
				c0.353,0.264,0.883,0.353,1.324,0.087l6.974-3.796c0.618-0.353,0.794-1.059,0.441-1.588l-3.795-6.974
				C157.769,119.902,157.328,119.637,156.887,119.637L156.887,119.637z M159.182,127.316l-3.355,1.854l1.5-5.208L159.182,127.316z"
				/>
			<path fill="#FFFFFF" d="M150.266,111.604c-0.353-0.53-1.06-0.794-1.589-0.441l-16.154,8.739
				c-0.529,0.354-0.794,1.059-0.441,1.589c0.354,0.617,1.06,0.794,1.589,0.441l16.154-8.739
				C150.354,112.84,150.531,112.134,150.266,111.604L150.266,111.604z"/>
		</g>
		<g>
			<g>
				<path fill="#FFFFFF" d="M171.275,44.165c-4.237,1.854-6.179,6.797-4.325,11.034c1.853,4.237,6.797,6.179,11.034,4.326
					c2.295-0.971,4.06-3.001,4.767-5.385c0.265-0.883,0.353-1.854,0.265-2.736c1.235-0.441,2.206-0.441,3.001,0
					c1.501,0.794,1.854,2.736,1.854,2.736c0,0.088,0,0.088,0.089,0.176l6.885,15.801c0.177,0.441,0.618,0.618,1.06,0.441
					c0.441-0.176,0.617-0.618,0.441-1.059l-6.797-15.801c-0.088-0.529-0.706-2.736-2.648-3.795
					c-1.148-0.618-2.473-0.707-4.062-0.177c-0.088-0.441-0.264-0.794-0.441-1.236C180.367,44.341,175.512,42.399,171.275,44.165
					L171.275,44.165z M181.25,50.962c0.087,0.882,0.087,1.853-0.176,2.736c-0.53,1.942-1.942,3.531-3.796,4.326
					c-3.443,1.5-7.415-0.089-8.828-3.531c-1.5-3.442,0.089-7.415,3.532-8.827c3.442-1.5,7.414,0.088,8.827,3.531
					C180.985,49.726,181.161,50.344,181.25,50.962L181.25,50.962z"/>
			</g>
		</g>
	</g>
	<g>
		<g>
			<path fill="#FFFFFF" d="M217.523,368.675c0,4.466-1.275,7.974-3.668,10.365c-2.393,2.393-6.061,3.668-10.844,3.668
				c-4.785,0-8.293-1.275-10.685-3.668c-2.393-2.392-3.668-5.899-3.668-10.365v-23.124h8.292v22.805
				c0,2.552,0.479,4.466,1.436,5.581c0.957,1.276,2.552,1.914,4.625,1.914c2.072,0,3.668-0.638,4.625-1.754
				c0.956-1.116,1.435-3.029,1.435-5.741v-22.805h8.293v23.124H217.523z"/>
		</g>
		<g>
			<path fill="#FFFFFF" d="M288.807,366.602c0,3.668-1.275,6.539-3.986,8.771c-2.711,2.232-6.379,3.35-11.004,3.35
				c-2.711,0-4.943-0.319-7.017-0.798s-3.986-1.275-5.741-2.073v-8.771h0.957c1.755,1.595,3.668,2.711,5.741,3.509
				c2.073,0.797,4.146,1.275,6.22,1.275c0.478,0,1.116,0,2.073-0.16c0.796-0.159,1.435-0.318,2.072-0.478
				c0.639-0.319,1.117-0.638,1.596-1.116c0.478-0.479,0.637-1.116,0.637-1.915c0-0.797-0.318-1.434-0.956-2.072
				c-0.638-0.638-1.436-0.957-2.711-1.275c-1.276-0.319-2.552-0.639-3.828-0.957c-1.275-0.319-2.551-0.638-3.827-1.116
				c-2.71-0.957-4.624-2.392-5.9-3.987c-1.275-1.754-1.754-3.827-1.754-6.379c0-3.349,1.276-6.219,3.986-8.292
				c2.711-2.073,6.22-3.189,10.366-3.189c2.073,0,4.306,0.159,6.379,0.638s3.827,1.116,5.422,1.754v8.453h-0.957
				c-1.275-1.117-2.87-2.233-4.784-3.031c-1.913-0.797-3.827-1.275-5.74-1.275c-0.639,0-1.436,0-2.073,0.16
				c-0.639,0.159-1.276,0.318-1.914,0.637c-0.638,0.32-1.116,0.639-1.436,1.117c-0.479,0.479-0.637,1.116-0.637,1.754
				c0,0.957,0.318,1.754,0.956,2.232s1.913,0.957,3.668,1.436c1.116,0.318,2.392,0.479,3.349,0.797
				c1.116,0.319,2.232,0.639,3.509,1.117c2.551,0.957,4.306,2.232,5.422,3.668C288.169,361.977,288.807,364.051,288.807,366.602z"/>
		</g>
		<g>
			<path fill="#FFFFFF" d="M314.481,378.083h-7.813v-13.714c0-1.116,0-2.232-0.159-3.35c-0.16-1.115-0.319-1.913-0.479-2.392
				c-0.319-0.638-0.639-1.116-1.276-1.275c-0.479-0.319-1.275-0.479-2.392-0.479c-0.639,0-1.436,0.16-2.073,0.32
				c-0.798,0.318-1.595,0.637-2.393,1.275v19.455h-7.813v-37.795h7.813v13.556c1.436-1.276,2.711-2.233,3.987-2.87
				c1.275-0.639,2.711-0.957,4.306-0.957c2.552,0,4.624,0.797,6.22,2.551c1.436,1.754,2.232,4.307,2.232,7.814v17.86H314.481z"/>
		</g>
		<g>
			<path fill="#FFFFFF" d="M331.545,372.342c-0.638,0.32-1.275,0.479-2.073,0.479c-0.797,0-1.594-0.159-2.231-0.479
				c-0.639-0.318-1.276-0.797-1.595-1.435c-0.479-0.638-0.799-1.595-1.117-2.712c-0.318-1.115-0.318-2.391-0.318-3.826
				c0-1.754,0.159-3.029,0.478-4.146c0.319-1.116,0.639-1.914,1.117-2.551c0.478-0.639,1.115-1.117,1.754-1.436
				c0.638-0.16,1.275-0.319,2.073-0.319c0.797,0,1.435,0.159,2.073,0.479c0.638,0.319,1.275,0.798,1.595,1.435
				c0.479,0.639,0.797,1.596,1.116,2.553c0.318,1.115,0.318,2.392,0.318,3.986c0,1.754-0.159,3.029-0.318,4.146
				c-0.319,0.957-0.638,1.754-1.116,2.552C332.821,371.704,332.183,372.184,331.545,372.342z M339.359,353.685
				c-2.392-2.552-5.581-3.987-9.888-3.987c-4.146,0-7.494,1.276-9.887,3.828c-2.393,2.551-3.509,6.219-3.509,10.684
				c0,4.466,1.116,8.133,3.509,10.686c2.393,2.551,5.582,3.827,9.887,3.827c4.146,0,7.496-1.276,9.888-3.827
				c2.392-2.553,3.508-6.22,3.508-10.686C342.867,359.744,341.751,356.236,339.359,353.685z"/>
		</g>
		<g>
			<path fill="#FFFFFF" d="M359.932,370.27c-0.958,1.435-2.553,2.072-4.625,2.072c-0.638,0-1.116,0-1.754-0.158
				c-0.639,0-1.116-0.16-1.595-0.479V357.83c0.638-0.478,1.435-0.797,2.232-1.115c0.797-0.319,1.595-0.319,2.232-0.319
				c1.754,0,3.029,0.638,3.827,1.754c0.797,1.276,1.275,3.19,1.275,5.901C361.366,366.92,360.888,368.994,359.932,370.27z
				 M366.947,353.685c-1.754-2.552-3.986-3.827-7.016-3.827c-1.595,0-3.03,0.318-4.307,0.957c-1.275,0.637-2.392,1.594-3.667,2.551
				v-2.87h-7.814v37.476h7.814v-11.482c0.956,0.639,2.072,1.116,3.029,1.436s2.073,0.479,3.509,0.479s2.87-0.319,4.306-0.957
				c1.276-0.637,2.552-1.595,3.508-2.87c0.957-1.275,1.755-2.711,2.393-4.624c0.638-1.914,0.957-3.987,0.957-6.221
				C369.5,359.585,368.702,356.076,366.947,353.685z"/>
		</g>
		<g>
			<path fill="#FFFFFF" d="M292.156,381.592v6.379h-1.755v-6.379H292.156z"/>
			<path fill="#FFFFFF" d="M299.811,385.579c0-0.798,0-1.595,0-2.552l0,0c-0.16,0.797-0.479,1.754-0.638,2.552l-0.639,2.231h-1.275
				l-0.478-2.231c-0.16-0.639-0.32-1.595-0.479-2.552l0,0c0,0.957,0,1.913-0.159,2.552l-0.16,2.231h-1.595l0.32-6.378h2.232
				l0.478,1.754c0.16,0.638,0.319,1.595,0.479,2.393l0,0c0.159-0.798,0.319-1.755,0.638-2.393l0.479-1.754h2.072l0.319,6.378h-1.595
				V385.579z"/>
			<path fill="#FFFFFF" d="M303.479,381.592c0.479,0,1.116-0.159,2.073-0.159s1.594,0.159,2.073,0.479
				c0.479,0.318,0.797,0.957,0.797,1.595s-0.159,1.275-0.638,1.595c-0.479,0.479-1.275,0.637-2.073,0.637c-0.159,0-0.319,0-0.479,0
				v2.233h-1.754V381.592z M305.232,384.463c0.159,0,0.159,0,0.319,0c0.638,0,1.116-0.319,1.116-0.957
				c0-0.479-0.319-0.798-0.957-0.798c-0.319,0-0.479,0-0.479,0V384.463L305.232,384.463z"/>
			<path fill="#FFFFFF" d="M310.177,381.592c0.478,0,1.274-0.159,2.073-0.159c0.956,0,1.753,0.159,2.231,0.479
				c0.479,0.318,0.638,0.797,0.638,1.435c0,0.798-0.638,1.276-1.116,1.595l0,0c0.479,0.16,0.639,0.639,0.798,1.117
				c0.159,0.638,0.318,1.595,0.479,1.753h-1.755c-0.159-0.158-0.318-0.638-0.479-1.435c-0.159-0.797-0.478-0.957-0.956-0.957h-0.318
				v2.392h-1.755v-6.219H310.177z M311.771,384.303h0.479c0.637,0,0.956-0.318,0.956-0.797s-0.319-0.798-0.956-0.798
				c-0.32,0-0.479,0-0.639,0v1.595H311.771z"/>
			<path fill="#FFFFFF" d="M320.86,385.419h-2.232v1.117h2.552v1.435h-4.306v-6.379h4.146v1.436h-2.393v0.957h2.232V385.419z"/>
			<path fill="#FFFFFF" d="M323.094,386.217c0.318,0.159,0.956,0.319,1.594,0.319c0.639,0,0.798-0.16,0.798-0.479
				c0-0.32-0.318-0.479-0.957-0.798c-1.116-0.319-1.754-0.957-1.754-1.914c0-1.116,0.957-2.073,2.552-2.073
				c0.797,0,1.275,0.16,1.754,0.319l-0.319,1.436c-0.318-0.159-0.797-0.319-1.435-0.319c-0.479,0-0.798,0.16-0.798,0.479
				c0,0.319,0.318,0.479,1.117,0.798c1.115,0.479,1.595,0.956,1.595,1.913c0,1.116-0.798,2.073-2.712,2.073
				c-0.797,0-1.435-0.16-1.913-0.318L323.094,386.217z"/>
			<path fill="#FFFFFF" d="M332.023,387.971c-1.913,0-3.03-1.435-3.03-3.189c0-1.913,1.276-3.349,3.189-3.349
				c2.073,0,3.03,1.595,3.03,3.189C335.373,386.695,334.097,387.971,332.023,387.971L332.023,387.971z M332.183,386.695
				c0.798,0,1.276-0.798,1.276-1.914s-0.479-1.913-1.276-1.913c-0.797,0-1.275,0.797-1.275,1.913
				C330.748,385.897,331.386,386.695,332.183,386.695L332.183,386.695z"/>
			<path fill="#FFFFFF" d="M337.286,386.217c0.319,0.159,0.956,0.319,1.595,0.319c0.638,0,0.798-0.16,0.798-0.479
				c0-0.32-0.319-0.479-0.957-0.798c-1.116-0.319-1.754-0.957-1.754-1.914c0-1.116,0.956-2.073,2.551-2.073
				c0.797,0,1.276,0.16,1.755,0.319l-0.319,1.436c-0.318-0.159-0.797-0.319-1.436-0.319c-0.478,0-0.797,0.16-0.797,0.479
				c0,0.319,0.319,0.479,1.116,0.798c1.116,0.479,1.595,0.956,1.595,1.913c0,1.116-0.797,2.073-2.711,2.073
				c-0.798,0-1.436-0.16-1.914-0.318L337.286,386.217z"/>
		</g>
		<g>
			<rect x="261.219" y="381.433" fill="#FFFFFF" width="26.153" height="6.378"/>
		</g>
		<g>
			<g>
				<g>
					<g>
						<g>
							<g>
								<path fill="#FFFFFF" d="M245.909,339.65c-7.974,0.798-16.585,1.596-17.223,1.755h-0.479l3.508,16.267
									c0.957,4.305,1.914,8.77,2.711,12.438c0.319,0.159,0.639,0.318,0.798,0.957c0.159,0.478,0.319,0.956,0.638,1.435
									c-0.797-3.986-2.073-9.568-3.189-14.99l-3.349-15.15c2.073-0.158,9.568-0.956,16.744-1.594l12.918-1.276
									c-0.319,4.466-2.552,32.054-2.871,35.722l-17.542,1.754c0.16,0.319,0.319,0.638,0.479,0.957l18.021-1.754v-0.479
									c0-0.956,2.711-35.402,2.87-36.838v-0.638L245.909,339.65z"/>
							</g>
						</g>
						<g>
							<g>
								<path fill="#FFFFFF" d="M238.733,368.675v0.798l8.611-0.957l-0.159-1.276c0,0-6.22,0.638-7.336,0.798
									c0.159-1.436,2.87-27.748,2.87-27.748l-1.116-0.16L238.733,368.675z"/>
							</g>
						</g>
						<g>
							<g>
								<path fill="#FFFFFF" d="M250.055,346.827c0-0.638-0.318-1.116-0.797-1.595c-0.478-0.479-0.956-0.639-1.595-0.479
									c-0.478,0-1.116,0.319-1.435,0.797c-0.319,0.479-0.479,1.117-0.479,1.755c0.159,1.276,1.116,2.232,2.231,2.073
									c0.479,0,1.117-0.319,1.437-0.797c0.318-0.479,0.478-0.957,0.478-1.436C250.055,346.986,250.055,346.827,250.055,346.827z"
									/>
							</g>
						</g>
					</g>
				</g>
			</g>
			<g>
				<g>
					<path fill="#FFFFFF" d="M218.32,376.01l10.685,19.615l15.629-8.452l-10.366-19.136l-2.552,1.275l-1.435-2.711L218.32,376.01z
						 M220.234,376.968l13.555-7.337l9.25,17.064l-13.556,7.335L220.234,376.968z M230.76,369.791l-8.452,4.465
						c0,0,7.335-5.9,7.654-6.06L230.76,369.791z"/>
				</g>
				<g>
					<path fill="#FFFFFF" d="M226.135,375.054c-0.159-0.159-0.479-0.159-0.638,0l-3.509,1.914c-0.318,0.159-0.479,0.478-0.318,0.797
						l2.072,3.668c0.16,0.159,0.319,0.318,0.639,0.318c0.159,0,0.159,0,0.159,0c0.159,0,0.318-0.159,0.318-0.318l1.596-5.582
						C226.454,375.532,226.294,375.213,226.135,375.054L226.135,375.054z M224.062,379.519l-1.116-1.754l1.754-0.956
						L224.062,379.519z"/>
				</g>
				<g>
					<path fill="#FFFFFF" d="M239.211,381.911c-0.318,0-0.478,0.159-0.478,0.479l-1.596,5.421c0,0.16,0,0.479,0.16,0.639
						c0.159,0.159,0.479,0.159,0.638,0l3.509-1.913c0.318-0.16,0.478-0.479,0.318-0.799l-2.073-3.508
						C239.689,382.07,239.371,381.911,239.211,381.911L239.211,381.911z M240.328,385.897l-1.755,0.957l0.798-2.711L240.328,385.897
						z"/>
				</g>
				<g>
					<path fill="#FFFFFF" d="M235.703,377.765c-0.159-0.319-0.479-0.479-0.797-0.319l-8.293,4.466
						c-0.319,0.159-0.479,0.479-0.319,0.797c0.16,0.319,0.479,0.479,0.798,0.319l8.292-4.466
						C235.862,378.402,235.862,378.083,235.703,377.765L235.703,377.765z"/>
				</g>
			</g>
			<g>
				<g>
					<g>
						<path fill="#FFFFFF" d="M246.547,343.159c-2.232,0.957-3.189,3.509-2.232,5.581c0.957,2.233,3.508,3.189,5.581,2.233
							c1.117-0.479,2.073-1.595,2.393-2.712c0.16-0.478,0.16-0.956,0.16-1.435c0.638-0.159,1.115-0.159,1.594,0
							c0.798,0.319,0.957,1.435,0.957,1.435s0,0,0,0.16l3.509,8.133c0.159,0.16,0.318,0.318,0.479,0.16
							c0.159-0.16,0.318-0.319,0.159-0.479l-3.509-8.133c0-0.319-0.319-1.436-1.436-1.914c-0.638-0.318-1.275-0.318-2.073-0.16
							c0-0.158-0.159-0.479-0.159-0.638C251.172,343.318,248.62,342.203,246.547,343.159L246.547,343.159z M251.649,346.668
							c0,0.479,0,0.957-0.159,1.436c-0.318,0.956-0.957,1.754-1.913,2.232c-1.755,0.797-3.827,0-4.625-1.754
							c-0.797-1.755,0-3.828,1.755-4.625c1.753-0.798,3.826,0,4.624,1.754C251.49,346.029,251.649,346.349,251.649,346.668
							L251.649,346.668z"/>
					</g>
				</g>
			</g>
		</g>
	</g>
</g>
</svg>
