<?xml version="1.0" encoding="utf-8"?>
<!-- Generator: Adobe Illustrator 16.0.0, SVG Export Plug-In . SVG Version: 6.00 Build 0)  -->
<!DOCTYPE svg PUBLIC "-//W3C//DTD SVG 1.1//EN" "http://www.w3.org/Graphics/SVG/1.1/DTD/svg11.dtd">
<svg version="1.1" xmlns="http://www.w3.org/2000/svg" xmlns:xlink="http://www.w3.org/1999/xlink" x="0px" y="0px" width="370px"
	 height="400px" viewBox="0 0 370 400" enable-background="new 0 0 370 400" xml:space="preserve">
<g id="base">
	<g>
		<path fill="#FFFFFF" d="M327.93,96.769v229.897h2.5V96.769c0-13.477-10.964-24.44-24.44-24.44h-68.638v2.5h68.638
			C318.087,74.829,327.93,84.671,327.93,96.769z"/>
		<path fill="#FFFFFF" d="M132.684,369.165H27.704c-12.098,0-21.94-9.844-21.94-21.941V96.769c0-12.098,9.842-21.94,21.94-21.94
			h71.647v-2.5H27.704c-13.477,0-24.44,10.964-24.44,24.44v250.455c0,13.477,10.964,24.441,24.44,24.441h104.98V369.165z"/>
	</g>
	<polygon fill="#FFFFFF" points="169.622,368.862 159.596,368.862 159.596,358.837 156.596,358.837 156.596,368.862 
		146.571,368.862 146.571,371.862 156.596,371.862 156.596,381.888 159.596,381.888 159.596,371.862 169.622,371.862 	"/>
</g>
<g id="seguridad">
	<g>
		<g>
			<g>
				<g>
					<path fill="#FFFFFF" d="M152.148,127.482l-0.175-0.787c-0.263-1.05-4.46-20.727-8.308-38.83l-6.735-31.571l1.049-0.088
						c1.225-0.087,18.016-1.749,33.495-3.323l27.462-2.711l-0.088,1.137c-0.174,2.624-5.51,69.614-5.598,71.45l-0.088,0.787
						L152.148,127.482z M139.118,57.78l6.296,29.56c3.498,16.354,7.259,34.02,8.133,38.042l37.694-3.672
						c0.611-7.26,4.809-60.869,5.508-69.527l-25.186,2.449C157.919,55.944,143.228,57.431,139.118,57.78z"/>
				</g>
				<g>
					<path fill="#FFFFFF" d="M157.482,109.205l-0.174,1.398l17.84-1.749l-0.175-2.36c0,0-13.118,1.311-15.304,1.486
						c0.263-2.711,5.685-53.96,5.685-53.96l-2.099-0.262L157.482,109.205z"/>
				</g>
				<g>
					<path fill="#FFFFFF" d="M179.434,66.526c-0.087-1.224-0.613-2.274-1.399-3.061s-1.836-1.137-2.974-1.049
						c-1.049,0.087-2.012,0.699-2.711,1.574c-0.7,0.962-1.049,2.099-0.962,3.324c0.175,2.536,2.187,4.373,4.373,4.11
						c1.05-0.087,2.012-0.699,2.711-1.574c0.613-0.787,0.962-1.836,0.962-2.886C179.521,66.789,179.521,66.701,179.434,66.526z"/>
				</g>
			</g>
		</g>
		<path fill="#FFFFFF" d="M138.243,52.183l59.205-6.559c2.449-0.262,4.199-2.449,3.936-4.897c-0.174-1.662-1.223-2.974-2.623-3.586
			c-1.748-13.992-12.506-25.187-26.323-27.548V9.418c-0.175-1.837-1.837-3.149-3.674-2.886l-10.931,1.225
			c-1.837,0.174-3.148,1.836-2.886,3.673v0.175c-13.031,5.335-20.989,18.541-19.678,32.621c-1.224,0.874-2.011,2.448-1.836,4.022
			C133.608,50.696,135.794,52.445,138.243,52.183z M137.543,45.624l54.833-6.034l-0.262-2.187l-54.834,6.035
			c-0.786-11.02,4.548-21.427,13.643-27.199l2.1,18.803l2.186-0.262l-2.186-19.765c0.699-0.35,1.399-0.699,2.099-1.049l2.798,25.012
			l2.188-0.262l-3.062-27.46c-0.087-0.612,0.351-1.137,0.962-1.225l10.932-1.225c0.612-0.087,1.137,0.35,1.224,0.962l3.062,27.46
			l2.186-0.262l-2.798-25.012c0.787,0.175,1.487,0.35,2.273,0.525l2.187,19.852l2.186-0.263l-2.099-18.803
			c10.143,3.673,17.577,12.681,19.239,23.613l-2.186,0.262l0.262,2.187l2.188-0.263c1.223-0.175,2.273,0.7,2.447,1.924
			c0.176,1.224-0.699,2.273-1.922,2.449l-59.208,6.559c-1.225,0.175-2.274-0.7-2.449-1.924
			C135.443,46.849,136.319,45.799,137.543,45.624z"/>
		<path fill="#FFFFFF" d="M190.366,56.905l-46.351,3.761c-3.236,0.262-5.86,2.361-6.91,5.247l-5.422,0.438l1.312,16.179l5.422-0.438
			c1.486,2.624,4.46,4.285,7.695,4.023l12.769-1.05c2.624-0.175,4.81-1.836,5.772-4.285l0.35-0.787
			c0.611-1.575,2.098-2.624,3.759-2.799c1.663-0.175,3.324,0.7,4.198,2.187l0.438,0.7c1.312,2.186,3.761,3.498,6.385,3.235
			l12.768-1.049c3.236-0.263,5.859-2.361,6.908-5.247l5.424-0.438l-1.313-16.179l-5.422,0.438
			C196.487,58.305,193.601,56.643,190.366,56.905z M136.582,68.275c0,0.35,0,0.787,0,1.137l0.087,1.137l-2.274,0.175l-0.175-2.274
			L136.582,68.275z M135.094,79.994l-0.525-6.91l2.274-0.175l0.437,5.772c0,0.437,0.088,0.787,0.175,1.137L135.094,79.994z
			 M197.536,73.785c0.262,3.236-2.1,6.035-5.334,6.297l-12.768,1.049c-1.662,0.175-3.324-0.699-4.198-2.186l-0.35-0.699
			c-1.312-2.187-3.76-3.499-6.384-3.236c-2.624,0.175-4.81,1.836-5.772,4.285l-0.35,0.788c-0.612,1.574-2.099,2.624-3.761,2.798
			l-12.768,1.049c-3.236,0.262-6.035-2.099-6.297-5.334l-0.787-9.27c-0.262-3.236,2.099-6.035,5.335-6.297l46.35-3.76
			c3.236-0.263,6.035,2.098,6.297,5.334L197.536,73.785z M199.897,74.747c0-0.35,0-0.787,0-1.137l-0.525-5.859l2.275-0.175
			l0.523,6.909L199.897,74.747z M201.384,62.94l0.176,2.274l-2.273,0.174l-0.088-1.137c0-0.438-0.088-0.787-0.176-1.137
			L201.384,62.94z"/>
	</g>
	<g>
		<path fill="#FFFFFF" d="M216.91,368.559c0,4.465-1.275,7.974-3.668,10.366c-2.393,2.392-6.061,3.668-10.844,3.668
			c-4.784,0-8.293-1.276-10.685-3.668c-2.392-2.393-3.668-5.901-3.668-10.366v-23.123h8.292v22.805c0,2.551,0.479,4.465,1.436,5.581
			c0.957,1.276,2.552,1.914,4.625,1.914c2.072,0,3.668-0.638,4.625-1.754s1.435-3.03,1.435-5.741v-22.804h8.292v23.123
			L216.91,368.559L216.91,368.559z"/>
		<path fill="#FFFFFF" d="M288.193,366.485c0,3.668-1.275,6.538-3.986,8.771c-2.711,2.232-6.379,3.349-11.004,3.349
			c-2.71,0-4.943-0.319-7.017-0.798c-1.913-0.479-3.827-1.275-5.581-2.073v-8.771h0.957c1.754,1.595,3.667,2.711,5.74,3.509
			c2.073,0.797,4.146,1.275,6.22,1.275c0.479,0,1.116,0,2.073-0.159c0.798-0.16,1.436-0.319,2.073-0.479
			c0.638-0.319,1.116-0.638,1.595-1.116c0.478-0.479,0.638-1.117,0.638-1.914s-0.319-1.436-0.957-2.073s-1.436-0.957-2.711-1.275
			c-1.275-0.319-2.552-0.639-3.827-0.957c-1.276-0.319-2.552-0.639-3.828-1.117c-2.71-0.957-4.624-2.392-5.899-3.986
			c-1.276-1.754-1.755-3.828-1.755-6.379c0-3.349,1.276-6.219,3.987-8.292s6.219-3.19,10.365-3.19c2.073,0,4.306,0.16,6.379,0.639
			s3.827,1.116,5.422,1.754v8.452h-0.957c-1.275-1.116-2.87-2.232-4.784-3.03c-1.914-0.797-3.827-1.275-5.741-1.275
			c-0.638,0-1.435,0-2.073,0.159c-0.638,0.159-1.275,0.319-1.913,0.638c-0.638,0.319-1.116,0.639-1.436,1.117
			c-0.479,0.479-0.638,1.115-0.638,1.754c0,0.957,0.318,1.754,0.957,2.232c0.638,0.479,1.913,0.957,3.668,1.436
			c1.116,0.318,2.392,0.479,3.349,0.797c1.116,0.318,2.232,0.638,3.508,1.116c2.552,0.957,4.306,2.232,5.422,3.668
			C287.556,361.86,288.193,363.935,288.193,366.485z"/>
		<path fill="#FFFFFF" d="M313.868,377.968h-7.813v-13.715c0-1.116,0-2.232-0.16-3.349c-0.159-1.116-0.318-1.913-0.479-2.392
			c-0.318-0.639-0.638-1.117-1.275-1.276c-0.479-0.319-1.276-0.479-2.393-0.479c-0.638,0-1.435,0.159-2.073,0.319
			c-0.797,0.318-1.595,0.638-2.392,1.275v19.456h-7.814v-37.954h7.814v13.555c1.435-1.275,2.711-2.232,3.986-2.871
			c1.276-0.638,2.711-0.957,4.306-0.957c2.552,0,4.625,0.797,6.22,2.552c1.436,1.755,2.232,4.306,2.232,7.813v18.021H313.868
			L313.868,377.968z"/>
		<path fill="#FFFFFF" d="M331.092,372.227c-0.638,0.319-1.276,0.479-2.073,0.479c-0.798,0-1.595-0.159-2.233-0.479
			c-0.637-0.318-1.275-0.797-1.594-1.436c-0.479-0.638-0.798-1.595-1.117-2.711c-0.318-1.116-0.318-2.392-0.318-3.827
			c0-1.754,0.159-3.029,0.479-4.146c0.319-1.116,0.638-1.913,1.116-2.551c0.479-0.639,1.116-1.117,1.754-1.436
			c0.638-0.16,1.276-0.319,2.073-0.319c0.798,0,1.436,0.159,2.073,0.479s1.275,0.798,1.595,1.436
			c0.479,0.638,0.798,1.595,1.116,2.552c0.319,1.115,0.319,2.393,0.319,3.986c0,1.754-0.16,3.03-0.319,4.146
			c-0.318,0.957-0.638,1.754-1.116,2.552C332.208,371.589,331.729,371.908,331.092,372.227z M338.746,353.568
			c-2.392-2.552-5.581-3.987-9.887-3.987c-4.146,0-7.496,1.276-9.888,3.828c-2.392,2.551-3.508,6.219-3.508,10.685
			c0,4.465,1.116,8.133,3.508,10.685c2.393,2.551,5.582,3.827,9.888,3.827c4.146,0,7.495-1.276,9.887-3.827
			c2.393-2.552,3.509-6.22,3.509-10.685C342.255,359.628,341.139,356.12,338.746,353.568z"/>
		<path fill="#FFFFFF" d="M359.317,370.153c-0.957,1.436-2.551,2.073-4.624,2.073c-0.638,0-1.116,0-1.754-0.159
			c-0.638,0-1.117-0.159-1.595-0.479v-13.874c0.638-0.479,1.435-0.798,2.232-1.116c0.797-0.319,1.595-0.319,2.232-0.319
			c1.754,0,3.03,0.638,3.827,1.755c0.798,1.275,1.276,3.189,1.276,5.9C360.913,366.805,360.274,368.878,359.317,370.153z
			 M366.335,353.409c-1.754-2.552-3.987-3.828-7.018-3.828c-1.594,0-3.029,0.32-4.306,0.957c-1.275,0.639-2.392,1.596-3.667,2.553
			v-2.871h-7.814v37.476h7.814v-11.482c0.957,0.639,2.073,1.116,3.029,1.436c0.957,0.319,2.073,0.479,3.509,0.479
			c1.435,0,2.871-0.318,4.306-0.957c1.276-0.638,2.552-1.595,3.509-2.87c0.957-1.276,1.754-2.711,2.392-4.625
			c0.638-1.913,0.957-3.987,0.957-6.219C368.886,359.469,368.089,355.96,366.335,353.409z"/>
		<g enable-background="new    ">
			<path fill="#FFFFFF" d="M280.797,386.771c0.369,0.227,0.908,0.416,1.476,0.416c0.842,0,1.333-0.444,1.333-1.088
				c0-0.596-0.34-0.936-1.201-1.267c-1.04-0.369-1.683-0.908-1.683-1.807c0-0.992,0.823-1.729,2.062-1.729
				c0.652,0,1.125,0.15,1.409,0.312l-0.228,0.672c-0.208-0.113-0.634-0.303-1.21-0.303c-0.87,0-1.201,0.52-1.201,0.955
				c0,0.596,0.388,0.889,1.268,1.229c1.078,0.416,1.626,0.937,1.626,1.872c0,0.983-0.729,1.835-2.231,1.835
				c-0.614,0-1.286-0.18-1.626-0.407L280.797,386.771z"/>
			<path fill="#FFFFFF" d="M288.872,384.784h-2.478v2.299h2.762v0.689h-3.584v-6.373h3.441v0.69h-2.619v2.014h2.478V384.784
				L288.872,384.784z"/>
			<path fill="#FFFFFF" d="M295.074,387.489c-0.368,0.132-1.097,0.35-1.957,0.35c-0.965,0-1.759-0.246-2.383-0.842
				c-0.549-0.529-0.89-1.381-0.89-2.373c0.01-1.9,1.314-3.291,3.452-3.291c0.737,0,1.313,0.161,1.588,0.294l-0.198,0.671
				c-0.34-0.151-0.766-0.274-1.408-0.274c-1.552,0-2.563,0.965-2.563,2.563c0,1.617,0.974,2.572,2.458,2.572
				c0.539,0,0.908-0.075,1.097-0.17v-1.901h-1.295v-0.661h2.099V387.489L295.074,387.489z"/>
			<path fill="#FFFFFF" d="M297.153,381.399v3.773c0,1.428,0.634,2.033,1.484,2.033c0.946,0,1.552-0.625,1.552-2.033v-3.773h0.831
				v3.716c0,1.958-1.03,2.762-2.411,2.762c-1.304,0-2.288-0.747-2.288-2.724v-3.754H297.153L297.153,381.399z"/>
			<path fill="#FFFFFF" d="M302.448,381.484c0.416-0.085,1.012-0.133,1.579-0.133c0.879,0,1.446,0.161,1.844,0.521
				c0.321,0.283,0.501,0.719,0.501,1.21c0,0.842-0.529,1.399-1.201,1.627v0.028c0.492,0.17,0.785,0.624,0.937,1.286
				c0.208,0.889,0.359,1.503,0.492,1.749h-0.852c-0.104-0.18-0.245-0.729-0.425-1.522c-0.189-0.879-0.53-1.21-1.277-1.238h-0.775
				v2.761h-0.822V381.484L302.448,381.484z M303.271,384.388h0.842c0.879,0,1.438-0.482,1.438-1.211
				c0-0.822-0.596-1.182-1.466-1.191c-0.397,0-0.681,0.038-0.813,0.076V384.388L303.271,384.388z"/>
			<path fill="#FFFFFF" d="M308.357,381.399v6.373h-0.823v-6.373H308.357z"/>
			<path fill="#FFFFFF" d="M309.794,381.484c0.501-0.076,1.097-0.133,1.75-0.133c1.182,0,2.022,0.274,2.581,0.794
				c0.567,0.521,0.898,1.258,0.898,2.289c0,1.04-0.321,1.892-0.917,2.478c-0.596,0.596-1.58,0.917-2.818,0.917
				c-0.587,0-1.078-0.028-1.494-0.075V381.484L309.794,381.484z M310.617,387.12c0.208,0.038,0.51,0.047,0.831,0.047
				c1.76,0,2.715-0.983,2.715-2.704c0.009-1.504-0.842-2.459-2.582-2.459c-0.425,0-0.747,0.038-0.964,0.086V387.12z"/>
			<path fill="#FFFFFF" d="M316.989,385.768l-0.662,2.005h-0.851l2.165-6.373h0.993l2.175,6.373h-0.879l-0.682-2.005H316.989z
				 M319.079,385.125l-0.624-1.834c-0.142-0.417-0.236-0.795-0.331-1.164h-0.02c-0.094,0.379-0.198,0.767-0.321,1.154l-0.624,1.844
				H319.079L319.079,385.125z"/>
			<path fill="#FFFFFF" d="M321.745,381.484c0.501-0.076,1.097-0.133,1.749-0.133c1.183,0,2.023,0.274,2.582,0.794
				c0.566,0.521,0.897,1.258,0.897,2.289c0,1.04-0.321,1.892-0.917,2.478c-0.596,0.596-1.579,0.917-2.818,0.917
				c-0.586,0-1.077-0.028-1.493-0.075V381.484L321.745,381.484z M322.567,387.12c0.208,0.038,0.51,0.047,0.832,0.047
				c1.759,0,2.714-0.983,2.714-2.704c0.01-1.504-0.842-2.459-2.581-2.459c-0.426,0-0.747,0.038-0.965,0.086V387.12L322.567,387.12z"
				/>
		</g>
		<g>
			<g>
				<g>
					<g>
						<path fill="#FFFFFF" d="M231.581,388.971l-0.159-0.479c-0.159-0.479-2.073-9.887-3.986-18.498l-3.189-14.991h0.479
							c0.638,0,8.611-0.797,15.946-1.594l13.077-1.275v0.479c-0.159,1.275-2.552,33.169-2.711,34.126v0.319L231.581,388.971z
							 M225.362,355.642l3.03,14.033c1.595,7.814,3.508,16.267,3.827,18.18l18.021-1.754c0.319-3.508,2.232-29.023,2.552-33.17
							l-11.961,1.117C234.293,354.845,227.275,355.481,225.362,355.642z"/>
					</g>
					<g>
						<path fill="#FFFFFF" d="M234.133,380.2v0.638l8.452-0.798l-0.159-1.116c0,0-6.22,0.638-7.336,0.798
							c0.159-1.276,2.711-25.676,2.711-25.676l-0.956-0.158L234.133,380.2z"/>
					</g>
					<g>
						<path fill="#FFFFFF" d="M244.499,359.947c0-0.638-0.319-1.116-0.639-1.435c-0.318-0.319-0.957-0.479-1.435-0.479
							c-0.479,0-0.957,0.318-1.276,0.797c-0.318,0.479-0.478,0.957-0.478,1.594c0.159,1.117,0.956,2.074,2.072,1.914
							c0.479,0,0.957-0.318,1.276-0.797c0.318-0.319,0.479-0.957,0.479-1.436C244.499,359.947,244.499,359.947,244.499,359.947z"/>
					</g>
				</g>
			</g>
			<path fill="#FFFFFF" d="M224.884,353.09l28.227-3.189c1.116-0.159,1.913-1.116,1.913-2.392c-0.159-0.798-0.638-1.436-1.275-1.755
				c-0.797-6.698-5.9-11.96-12.599-13.076l0,0c-0.159-0.798-0.797-1.436-1.754-1.436l-5.262,0.638
				c-0.798,0.16-1.436,0.798-1.436,1.754l0,0c-6.22,2.552-10.047,8.771-9.409,15.47c-0.638,0.478-0.957,1.116-0.797,1.913
				C222.651,352.292,223.768,353.249,224.884,353.09z M224.564,349.901l26.153-2.871l-0.159-1.117l-26.153,2.871
				c-0.319-5.262,2.232-10.206,6.538-12.917l0.957,8.931h1.116l-1.116-9.409c0.319-0.159,0.638-0.319,0.957-0.479l1.276,11.96
				l1.116-0.159l-1.436-13.077c0-0.318,0.159-0.479,0.479-0.638l5.263-0.638c0.318,0,0.479,0.159,0.638,0.479l1.436,13.076
				l1.116-0.159l-1.276-11.96c0.319,0,0.798,0.159,1.117,0.318l1.116,9.409l1.116-0.159l-0.957-8.931
				c4.784,1.754,8.452,6.06,9.09,11.322l-0.957,0.159l0.16,1.117l1.116-0.16c0.638,0,1.116,0.319,1.116,0.957
				c0,0.639-0.319,1.117-0.957,1.117l-28.227,3.189c-0.638,0-1.116-0.319-1.116-0.957
				C224.086,350.538,223.927,350.06,224.564,349.901z"/>
			<path fill="#FFFFFF" d="M249.762,355.323l-22.167,1.754c-1.595,0.159-2.87,1.116-3.349,2.551l-2.552,0.16l0.638,7.654
				l2.552-0.159c0.798,1.275,2.073,2.072,3.668,1.913l6.06-0.479c1.275-0.159,2.232-0.798,2.711-2.073l0.159-0.318
				c0.319-0.798,0.957-1.276,1.754-1.276c0.798,0,1.595,0.319,2.073,0.957l0.159,0.319c0.639,1.116,1.755,1.594,3.03,1.594
				l6.061-0.478c1.595-0.16,2.87-1.116,3.349-2.552l2.552-0.159l-0.638-7.655l-2.552,0.159
				C252.632,355.96,251.356,355.163,249.762,355.323z M224.086,360.745c0,0.159,0,0.318,0,0.479v0.479l-1.116,0.159v-1.116H224.086
				L224.086,360.745z M223.448,366.326l-0.318-3.349l1.116-0.16l0.159,2.711c0,0.16,0,0.319,0.159,0.479L223.448,366.326z
				 M253.11,363.296c0.159,1.595-0.957,2.871-2.552,3.03l-6.06,0.479c-0.798,0-1.595-0.319-2.073-0.957v-0.319
				c-0.638-1.116-1.755-1.594-3.03-1.594c-1.275,0.159-2.232,0.797-2.711,2.072l-0.159,0.319c-0.319,0.797-1.116,1.275-1.914,1.275
				l-6.06,0.479c-1.595,0.16-2.87-0.957-3.03-2.551l-0.318-4.466c-0.16-1.594,0.956-2.87,2.551-3.029l22.167-1.755
				c1.595-0.159,2.87,0.957,3.029,2.552L253.11,363.296z M254.227,363.774c0-0.16,0-0.318,0-0.479l-0.159-2.711l1.116-0.159
				l0.318,3.349H254.227z M255.023,358.193l0.159,1.116l-1.116,0.16v-0.479c0-0.16,0-0.32-0.159-0.479L255.023,358.193z"/>
		</g>
		<rect x="260.604" y="381.316" fill="#FFFFFF" width="17.861" height="6.379"/>
	</g>
</g>
</svg>
