<?xml version="1.0" encoding="utf-8"?>
<!-- Generator: Adobe Illustrator 18.0.0, SVG Export Plug-In . SVG Version: 6.00 Build 0)  -->
<!DOCTYPE svg PUBLIC "-//W3C//DTD SVG 1.1//EN" "http://www.w3.org/Graphics/SVG/1.1/DTD/svg11.dtd">
<svg version="1.1" id="Capa_1" xmlns="http://www.w3.org/2000/svg" xmlns:xlink="http://www.w3.org/1999/xlink" x="0px" y="0px"
	 viewBox="0 0 141.7 56.7" enable-background="new 0 0 141.7 56.7" xml:space="preserve">
<g>
	<g>
		<path fill="#211916" d="M31.6,31.5c0,2.8-0.8,5-2.3,6.5c-1.5,1.5-3.8,2.3-6.8,2.3c-3,0-5.2-0.8-6.7-2.3c-1.5-1.5-2.3-3.7-2.3-6.5
			V17h5.2v14.3c0,1.6,0.3,2.8,0.9,3.5c0.6,0.8,1.6,1.2,2.9,1.2c1.3,0,2.3-0.4,2.9-1.1c0.6-0.7,0.9-1.9,0.9-3.6V17h5.2V31.5z"/>
	</g>
	<g>
		<path fill="#211916" d="M76.3,30.2c0,2.3-0.8,4.1-2.5,5.5c-1.7,1.4-4,2.1-6.9,2.1c-1.7,0-3.1-0.2-4.4-0.5C61.2,37,60,36.5,58.9,36
			v-5.5h0.6c1.1,1,2.3,1.7,3.6,2.2c1.3,0.5,2.6,0.8,3.9,0.8c0.3,0,0.7,0,1.3-0.1c0.5-0.1,0.9-0.2,1.3-0.3c0.4-0.2,0.7-0.4,1-0.7
			c0.3-0.3,0.4-0.7,0.4-1.2c0-0.5-0.2-0.9-0.6-1.3c-0.4-0.4-0.9-0.6-1.7-0.8c-0.8-0.2-1.6-0.4-2.4-0.6c-0.8-0.2-1.6-0.4-2.4-0.7
			c-1.7-0.6-2.9-1.5-3.7-2.5c-0.8-1.1-1.1-2.4-1.1-4c0-2.1,0.8-3.9,2.5-5.2c1.7-1.3,3.9-2,6.5-2c1.3,0,2.7,0.1,4,0.4
			c1.3,0.3,2.4,0.7,3.4,1.1v5.3h-0.6c-0.8-0.7-1.8-1.4-3-1.9c-1.2-0.5-2.4-0.8-3.6-0.8c-0.4,0-0.9,0-1.3,0.1
			c-0.4,0.1-0.8,0.2-1.2,0.4c-0.4,0.2-0.7,0.4-0.9,0.7c-0.3,0.3-0.4,0.7-0.4,1.1c0,0.6,0.2,1.1,0.6,1.4c0.4,0.3,1.2,0.6,2.3,0.9
			c0.7,0.2,1.5,0.3,2.1,0.5c0.7,0.2,1.4,0.4,2.2,0.7c1.6,0.6,2.7,1.4,3.4,2.3C75.9,27.3,76.3,28.6,76.3,30.2z"/>
	</g>
	<g>
		<path fill="#211916" d="M92.4,37.4h-4.9v-8.6c0-0.7,0-1.4-0.1-2.1c-0.1-0.7-0.2-1.2-0.3-1.5c-0.2-0.4-0.4-0.7-0.8-0.8
			c-0.3-0.2-0.8-0.3-1.5-0.3c-0.4,0-0.9,0.1-1.3,0.2c-0.5,0.2-1,0.4-1.5,0.8v12.2h-4.9V13.6H82v8.5c0.9-0.8,1.7-1.4,2.5-1.8
			c0.8-0.4,1.7-0.6,2.7-0.6c1.6,0,2.9,0.5,3.9,1.6c0.9,1.1,1.4,2.7,1.4,4.9V37.4z"/>
	</g>
	<g>
		<path fill="#211916" d="M103.1,33.8c-0.4,0.2-0.8,0.3-1.3,0.3c-0.5,0-1-0.1-1.4-0.3c-0.4-0.2-0.8-0.5-1-0.9
			c-0.3-0.4-0.5-1-0.7-1.7c-0.2-0.7-0.2-1.5-0.2-2.4c0-1.1,0.1-1.9,0.3-2.6c0.2-0.7,0.4-1.2,0.7-1.6c0.3-0.4,0.7-0.7,1.1-0.9
			c0.4-0.1,0.8-0.2,1.3-0.2c0.5,0,0.9,0.1,1.3,0.3c0.4,0.2,0.8,0.5,1,0.9c0.3,0.4,0.5,1,0.7,1.6c0.2,0.7,0.2,1.5,0.2,2.5
			c0,1.1-0.1,1.9-0.2,2.6c-0.2,0.6-0.4,1.1-0.7,1.6C103.9,33.4,103.5,33.7,103.1,33.8z M108,22.1c-1.5-1.6-3.5-2.5-6.2-2.5
			c-2.6,0-4.7,0.8-6.2,2.4c-1.5,1.6-2.2,3.9-2.2,6.7c0,2.8,0.7,5.1,2.2,6.7c1.5,1.6,3.5,2.4,6.2,2.4c2.6,0,4.7-0.8,6.2-2.4
			c1.5-1.6,2.2-3.9,2.2-6.7S109.5,23.7,108,22.1z"/>
	</g>
	<g>
		<path fill="#211916" d="M120.9,32.5c-0.6,0.9-1.6,1.3-2.9,1.3c-0.4,0-0.7,0-1.1-0.1c-0.4,0-0.7-0.1-1-0.3v-8.7
			c0.4-0.3,0.9-0.5,1.4-0.7c0.5-0.2,1-0.2,1.4-0.2c1.1,0,1.9,0.4,2.4,1.1c0.5,0.8,0.8,2,0.8,3.7C121.8,30.4,121.5,31.7,120.9,32.5z
			 M125.3,22.1c-1.1-1.6-2.5-2.4-4.4-2.4c-1,0-1.9,0.2-2.7,0.6c-0.8,0.4-1.5,1-2.3,1.6v-1.8h-4.9v23.5h4.9v-7.2
			c0.6,0.4,1.3,0.7,1.9,0.9c0.6,0.2,1.3,0.3,2.2,0.3c0.9,0,1.8-0.2,2.7-0.6c0.8-0.4,1.6-1,2.2-1.8c0.6-0.8,1.1-1.7,1.5-2.9
			c0.4-1.2,0.6-2.5,0.6-3.9C126.9,25.8,126.4,23.6,125.3,22.1z"/>
	</g>
	<g>
		<path fill="#C10000" d="M78.4,39.6v4h-1.1v-4H78.4z"/>
		<path fill="#C10000" d="M83.2,42.1c0-0.5,0-1,0-1.6h0c-0.1,0.5-0.3,1.1-0.4,1.6l-0.4,1.4h-0.8l-0.3-1.4c-0.1-0.4-0.2-1-0.3-1.6h0
			c0,0.6,0,1.2-0.1,1.6l-0.1,1.4h-1l0.2-4h1.4l0.3,1.1c0.1,0.4,0.2,1,0.3,1.5h0c0.1-0.5,0.2-1.1,0.4-1.5l0.3-1.1H84l0.2,4h-1
			L83.2,42.1z"/>
		<path fill="#C10000" d="M85.5,39.6c0.3,0,0.7-0.1,1.3-0.1c0.6,0,1,0.1,1.3,0.3c0.3,0.2,0.5,0.6,0.5,1c0,0.4-0.1,0.8-0.4,1
			c-0.3,0.3-0.8,0.4-1.3,0.4c-0.1,0-0.2,0-0.3,0v1.4h-1.1V39.6z M86.6,41.4c0.1,0,0.1,0,0.2,0c0.4,0,0.7-0.2,0.7-0.6
			c0-0.3-0.2-0.5-0.6-0.5c-0.2,0-0.3,0-0.3,0V41.4z"/>
		<path fill="#C10000" d="M89.7,39.6c0.3,0,0.8-0.1,1.3-0.1c0.6,0,1.1,0.1,1.4,0.3c0.3,0.2,0.4,0.5,0.4,0.9c0,0.5-0.4,0.8-0.7,1v0
			c0.3,0.1,0.4,0.4,0.5,0.7c0.1,0.4,0.2,1,0.3,1.1h-1.1c-0.1-0.1-0.2-0.4-0.3-0.9c-0.1-0.5-0.3-0.6-0.6-0.6h-0.2v1.5h-1.1V39.6z
			 M90.7,41.3H91c0.4,0,0.6-0.2,0.6-0.5c0-0.3-0.2-0.5-0.6-0.5c-0.2,0-0.3,0-0.4,0V41.3z"/>
		<path fill="#C10000" d="M96.4,42H95v0.7h1.6v0.9h-2.7v-4h2.6v0.9H95v0.6h1.4V42z"/>
		<path fill="#C10000" d="M97.8,42.5c0.2,0.1,0.6,0.2,1,0.2c0.4,0,0.5-0.1,0.5-0.3c0-0.2-0.2-0.3-0.6-0.5c-0.7-0.2-1.1-0.6-1.1-1.2
			c0-0.7,0.6-1.3,1.6-1.3c0.5,0,0.8,0.1,1.1,0.2l-0.2,0.9c-0.2-0.1-0.5-0.2-0.9-0.2c-0.3,0-0.5,0.1-0.5,0.3c0,0.2,0.2,0.3,0.7,0.5
			c0.7,0.3,1,0.6,1,1.2c0,0.7-0.5,1.3-1.7,1.3c-0.5,0-0.9-0.1-1.2-0.2L97.8,42.5z"/>
		<path fill="#C10000" d="M103.4,43.6c-1.2,0-1.9-0.9-1.9-2c0-1.2,0.8-2.1,2-2.1c1.3,0,1.9,1,1.9,2
			C105.5,42.8,104.7,43.6,103.4,43.6L103.4,43.6z M103.5,42.8c0.5,0,0.8-0.5,0.8-1.2c0-0.7-0.3-1.2-0.8-1.2c-0.5,0-0.8,0.5-0.8,1.2
			C102.6,42.3,103,42.8,103.5,42.8L103.5,42.8z"/>
		<path fill="#C10000" d="M106.7,42.5c0.2,0.1,0.6,0.2,1,0.2c0.4,0,0.5-0.1,0.5-0.3c0-0.2-0.2-0.3-0.6-0.5c-0.7-0.2-1.1-0.6-1.1-1.2
			c0-0.7,0.6-1.3,1.6-1.3c0.5,0,0.8,0.1,1.1,0.2l-0.2,0.9c-0.2-0.1-0.5-0.2-0.9-0.2c-0.3,0-0.5,0.1-0.5,0.3c0,0.2,0.2,0.3,0.7,0.5
			c0.7,0.3,1,0.6,1,1.2c0,0.7-0.5,1.3-1.7,1.3c-0.5,0-0.9-0.1-1.2-0.2L106.7,42.5z"/>
	</g>
	<g>
		<rect x="59" y="39.5" fill="#C10000" width="16.4" height="4"/>
	</g>
	<g>
		<g>
			<g>
				<g>
					<g>
						<g>
							<path fill="#211916" d="M49.4,13.3c-5,0.5-10.4,1-10.8,1.1l-0.3,0l2.2,10.2c0.6,2.7,1.2,5.5,1.7,7.8c0.2,0.1,0.4,0.2,0.5,0.6
								c0.1,0.3,0.2,0.6,0.4,0.9c-0.5-2.5-1.3-6-2-9.4L39,15c1.3-0.1,6-0.6,10.5-1l8.1-0.8c-0.2,2.8-1.6,20.1-1.8,22.4l-11,1.1
								c0.1,0.2,0.2,0.4,0.3,0.6l11.3-1.1l0-0.3c0-0.6,1.7-22.2,1.8-23.1l0-0.4L49.4,13.3z"/>
						</g>
					</g>
					<g>
						<g>
							<path fill="#211916" d="M44.9,31.5l0,0.5l5.4-0.6l-0.1-0.8c0,0-3.9,0.4-4.6,0.5c0.1-0.9,1.8-17.4,1.8-17.4l-0.7-0.1
								L44.9,31.5z"/>
						</g>
					</g>
					<g>
						<g>
							<path fill="#C10000" d="M52,17.8c0-0.4-0.2-0.7-0.5-1c-0.3-0.3-0.6-0.4-1-0.3c-0.3,0-0.7,0.2-0.9,0.5
								c-0.2,0.3-0.3,0.7-0.3,1.1c0.1,0.8,0.7,1.4,1.4,1.3c0.3,0,0.7-0.2,0.9-0.5c0.2-0.3,0.3-0.6,0.3-0.9C52,17.9,52,17.8,52,17.8z
								"/>
						</g>
					</g>
				</g>
			</g>
		</g>
		<g>
			<g>
				<path d="M32.1,36.1l6.7,12.3l9.8-5.3l-6.5-12l-1.6,0.8l-0.9-1.7L32.1,36.1z M33.3,36.7l8.5-4.6l5.8,10.7l-8.5,4.6L33.3,36.7z
					 M39.9,32.2L34.6,35c0,0,4.6-3.7,4.8-3.8L39.9,32.2z M39.9,32.2"/>
			</g>
			<g>
				<path d="M37,35.5c-0.1-0.1-0.3-0.1-0.4,0l-2.2,1.2c-0.2,0.1-0.3,0.3-0.2,0.5l1.3,2.3c0.1,0.1,0.2,0.2,0.4,0.2c0.1,0,0.1,0,0.1,0
					c0.1,0,0.2-0.1,0.2-0.2l1-3.5C37.2,35.8,37.1,35.6,37,35.5L37,35.5z M35.7,38.3L35,37.2l1.1-0.6L35.7,38.3z M35.7,38.3"/>
			</g>
			<g>
				<path d="M45.2,39.8c-0.2,0-0.3,0.1-0.3,0.3l-1,3.4c0,0.1,0,0.3,0.1,0.4c0.1,0.1,0.3,0.1,0.4,0l2.2-1.2c0.2-0.1,0.3-0.3,0.2-0.5
					L45.5,40C45.5,39.9,45.3,39.8,45.2,39.8L45.2,39.8z M45.9,42.3l-1.1,0.6l0.5-1.7L45.9,42.3z M45.9,42.3"/>
			</g>
			<g>
				<path d="M43,37.2c-0.1-0.2-0.3-0.3-0.5-0.2l-5.2,2.8c-0.2,0.1-0.3,0.3-0.2,0.5c0.1,0.2,0.3,0.3,0.5,0.2l5.2-2.8
					C43.1,37.6,43.1,37.4,43,37.2L43,37.2z M43,37.2"/>
			</g>
		</g>
		<g>
			<g>
				<g>
					<path d="M49.8,15.5c-1.4,0.6-2,2.2-1.4,3.5c0.6,1.4,2.2,2,3.5,1.4c0.7-0.3,1.3-1,1.5-1.7c0.1-0.3,0.1-0.6,0.1-0.9
						c0.4-0.1,0.7-0.1,1,0c0.5,0.2,0.6,0.9,0.6,0.9c0,0,0,0,0,0.1l2.2,5.1c0.1,0.1,0.2,0.2,0.3,0.1c0.1-0.1,0.2-0.2,0.1-0.3
						l-2.2-5.1c0-0.2-0.2-0.9-0.9-1.2c-0.4-0.2-0.8-0.2-1.3-0.1c0-0.1-0.1-0.3-0.1-0.4C52.7,15.6,51.1,14.9,49.8,15.5L49.8,15.5z
						 M53,17.7c0,0.3,0,0.6-0.1,0.9c-0.2,0.6-0.6,1.1-1.2,1.4c-1.1,0.5-2.4,0-2.9-1.1c-0.5-1.1,0-2.4,1.1-2.9c1.1-0.5,2.4,0,2.9,1.1
						C52.9,17.3,53,17.5,53,17.7L53,17.7z M53,17.7"/>
				</g>
			</g>
		</g>
	</g>
</g>
</svg>
