<?xml version="1.0" encoding="utf-8"?>
<!-- Generator: Adobe Illustrator 18.0.0, SVG Export Plug-In . SVG Version: 6.00 Build 0)  -->
<!DOCTYPE svg PUBLIC "-//W3C//DTD SVG 1.1//EN" "http://www.w3.org/Graphics/SVG/1.1/DTD/svg11.dtd">
<svg version="1.1" id="Capa_1" xmlns="http://www.w3.org/2000/svg" xmlns:xlink="http://www.w3.org/1999/xlink" x="0px" y="0px"
	 viewBox="0 0 141.7 56.7" enable-background="new 0 0 141.7 56.7" xml:space="preserve">
<g>
	<g>
		<path fill="#211916" d="M30,32c0,2.8-0.8,5-2.3,6.5c-1.5,1.5-3.8,2.3-6.8,2.3c-3,0-5.2-0.8-6.7-2.3c-1.5-1.5-2.3-3.7-2.3-6.5V17.4
			h5.2v14.3c0,1.6,0.3,2.8,0.9,3.5c0.6,0.8,1.6,1.2,2.9,1.2c1.3,0,2.3-0.4,2.9-1.1c0.6-0.7,0.9-1.9,0.9-3.6V17.4H30V32z"/>
	</g>
	<g>
		<path fill="#211916" d="M74.7,30.6c0,2.3-0.8,4.1-2.5,5.5c-1.7,1.4-4,2.1-6.9,2.1c-1.7,0-3.1-0.2-4.4-0.5
			c-1.2-0.3-2.4-0.8-3.5-1.3V31h0.6c1.1,1,2.3,1.7,3.6,2.2c1.3,0.5,2.6,0.8,3.9,0.8c0.3,0,0.7,0,1.3-0.1c0.5-0.1,0.9-0.2,1.3-0.3
			c0.4-0.2,0.7-0.4,1-0.7c0.3-0.3,0.4-0.7,0.4-1.2c0-0.5-0.2-0.9-0.6-1.3c-0.4-0.4-0.9-0.6-1.7-0.8c-0.8-0.2-1.6-0.4-2.4-0.6
			c-0.8-0.2-1.6-0.4-2.4-0.7c-1.7-0.6-2.9-1.5-3.7-2.5c-0.8-1.1-1.1-2.4-1.1-4c0-2.1,0.8-3.9,2.5-5.2c1.7-1.3,3.9-2,6.5-2
			c1.3,0,2.7,0.1,4,0.4c1.3,0.3,2.4,0.7,3.4,1.1v5.3h-0.6c-0.8-0.7-1.8-1.4-3-1.9c-1.2-0.5-2.4-0.8-3.6-0.8c-0.4,0-0.9,0-1.3,0.1
			c-0.4,0.1-0.8,0.2-1.2,0.4c-0.4,0.2-0.7,0.4-0.9,0.7c-0.3,0.3-0.4,0.7-0.4,1.1c0,0.6,0.2,1.1,0.6,1.4c0.4,0.3,1.2,0.6,2.3,0.9
			c0.7,0.2,1.5,0.3,2.1,0.5c0.7,0.2,1.4,0.4,2.2,0.7c1.6,0.6,2.7,1.4,3.4,2.3C74.3,27.8,74.7,29.1,74.7,30.6z"/>
	</g>
	<g>
		<path fill="#211916" d="M90.8,37.8h-4.9v-8.6c0-0.7,0-1.4-0.1-2.1c-0.1-0.7-0.2-1.2-0.3-1.5c-0.2-0.4-0.4-0.7-0.8-0.8
			c-0.3-0.2-0.8-0.3-1.5-0.3c-0.4,0-0.9,0.1-1.3,0.2c-0.5,0.2-1,0.4-1.5,0.8v12.2h-4.9V14h4.9v8.5c0.9-0.8,1.7-1.4,2.5-1.8
			c0.8-0.4,1.7-0.6,2.7-0.6c1.6,0,2.9,0.5,3.9,1.6c0.9,1.1,1.4,2.7,1.4,4.9V37.8z"/>
	</g>
	<g>
		<path fill="#211916" d="M101.6,34.3c-0.4,0.2-0.8,0.3-1.3,0.3c-0.5,0-1-0.1-1.4-0.3c-0.4-0.2-0.8-0.5-1-0.9
			c-0.3-0.4-0.5-1-0.7-1.7C97,31,97,30.2,97,29.3c0-1.1,0.1-1.9,0.3-2.6c0.2-0.7,0.4-1.2,0.7-1.6c0.3-0.4,0.7-0.7,1.1-0.9
			c0.4-0.1,0.8-0.2,1.3-0.2c0.5,0,0.9,0.1,1.3,0.3c0.4,0.2,0.8,0.5,1,0.9c0.3,0.4,0.5,1,0.7,1.6c0.2,0.7,0.2,1.5,0.2,2.5
			c0,1.1-0.1,1.9-0.2,2.6c-0.2,0.6-0.4,1.1-0.7,1.6C102.3,33.8,102,34.1,101.6,34.3z M106.4,22.5c-1.5-1.6-3.5-2.5-6.2-2.5
			c-2.6,0-4.7,0.8-6.2,2.4c-1.5,1.6-2.2,3.9-2.2,6.7c0,2.8,0.7,5.1,2.2,6.7c1.5,1.6,3.5,2.4,6.2,2.4c2.6,0,4.7-0.8,6.2-2.4
			c1.5-1.6,2.2-3.9,2.2-6.7S107.9,24.2,106.4,22.5z"/>
	</g>
	<g>
		<path fill="#211916" d="M119.3,33c-0.6,0.9-1.6,1.3-2.9,1.3c-0.4,0-0.7,0-1.1-0.1c-0.4,0-0.7-0.1-1-0.3v-8.7
			c0.4-0.3,0.9-0.5,1.4-0.7c0.5-0.2,1-0.2,1.4-0.2c1.1,0,1.9,0.4,2.4,1.1c0.5,0.8,0.8,2,0.8,3.7C120.2,30.8,119.9,32.1,119.3,33z
			 M123.7,22.5c-1.1-1.6-2.5-2.4-4.4-2.4c-1,0-1.9,0.2-2.7,0.6c-0.8,0.4-1.5,1-2.3,1.6v-1.8h-4.9v23.5h4.9V37
			c0.6,0.4,1.3,0.7,1.9,0.9c0.6,0.2,1.3,0.3,2.2,0.3c0.9,0,1.8-0.2,2.7-0.6c0.8-0.4,1.6-1,2.2-1.8c0.6-0.8,1.1-1.7,1.5-2.9
			c0.4-1.2,0.6-2.5,0.6-3.9C125.3,26.2,124.8,24.1,123.7,22.5z"/>
	</g>
	<g>
		<path fill="#C10000" d="M57.9,40.1c0.3,0,0.7-0.1,1.3-0.1c0.6,0,1,0.1,1.3,0.3c0.3,0.2,0.5,0.6,0.5,1c0,0.4-0.1,0.8-0.4,1
			c-0.3,0.3-0.8,0.4-1.3,0.4c-0.1,0-0.2,0-0.3,0V44h-1.1V40.1z M58.9,41.8c0.1,0,0.1,0,0.2,0c0.4,0,0.7-0.2,0.7-0.6
			c0-0.3-0.2-0.5-0.6-0.5c-0.2,0-0.3,0-0.3,0V41.8z"/>
		<path fill="#C10000" d="M61.8,40.1c0.3,0,0.8-0.1,1.3-0.1c0.6,0,1.1,0.1,1.4,0.3c0.3,0.2,0.4,0.5,0.4,0.9c0,0.5-0.4,0.8-0.7,1v0
			c0.3,0.1,0.4,0.4,0.5,0.7c0.1,0.4,0.2,1,0.3,1.1h-1.1c-0.1-0.1-0.2-0.4-0.3-0.9c-0.1-0.5-0.3-0.6-0.6-0.6h-0.2V44h-1.1V40.1z
			 M62.8,41.7h0.3c0.4,0,0.6-0.2,0.6-0.5c0-0.3-0.2-0.5-0.6-0.5c-0.2,0-0.3,0-0.4,0V41.7z"/>
		<path fill="#C10000" d="M67.4,44.1c-1.2,0-1.9-0.9-1.9-2c0-1.2,0.8-2.1,2-2.1c1.3,0,1.9,1,1.9,2C69.4,43.2,68.7,44.1,67.4,44.1
			L67.4,44.1z M67.5,43.2c0.5,0,0.8-0.5,0.8-1.2c0-0.7-0.3-1.2-0.8-1.2c-0.5,0-0.8,0.5-0.8,1.2C66.6,42.7,66.9,43.2,67.5,43.2
			L67.5,43.2z"/>
		<path fill="#C10000" d="M70.3,40.1c0.3-0.1,0.8-0.1,1.3-0.1c0.8,0,1.3,0.1,1.6,0.4c0.4,0.3,0.7,0.8,0.7,1.5c0,0.8-0.3,1.3-0.7,1.7
			c-0.4,0.3-1.1,0.5-1.9,0.5c-0.5,0-0.9,0-1.1-0.1V40.1z M71.4,43.2c0.1,0,0.2,0,0.2,0c0.7,0,1.2-0.4,1.2-1.3c0-0.8-0.5-1.2-1.1-1.2
			c-0.2,0-0.3,0-0.3,0V43.2z"/>
		<path fill="#C10000" d="M75.9,40v2.3c0,0.6,0.2,0.9,0.6,0.9c0.4,0,0.6-0.3,0.6-0.9V40h1.1v2.2c0,1.2-0.6,1.9-1.7,1.9
			c-1.1,0-1.7-0.6-1.7-1.9V40H75.9z"/>
		<path fill="#C10000" d="M82.2,43.9c-0.1,0.1-0.5,0.2-1,0.2c-1.5,0-2.2-0.9-2.2-2c0-1.4,1-2.1,2.2-2.1c0.5,0,0.8,0.1,1,0.2L82.1,41
			c-0.2-0.1-0.4-0.1-0.7-0.1c-0.6,0-1.1,0.4-1.1,1.2c0,0.7,0.4,1.2,1.2,1.2c0.3,0,0.5,0,0.7-0.1L82.2,43.9z"/>
		<path fill="#C10000" d="M83.9,40.9h-1V40H86v0.9h-1V44h-1.1V40.9z"/>
		<path fill="#C10000" d="M88.4,44.1c-1.2,0-1.9-0.9-1.9-2c0-1.2,0.8-2.1,2-2.1c1.3,0,1.9,1,1.9,2C90.4,43.2,89.6,44.1,88.4,44.1
			L88.4,44.1z M88.4,43.2c0.5,0,0.8-0.5,0.8-1.2c0-0.7-0.3-1.2-0.8-1.2c-0.5,0-0.8,0.5-0.8,1.2C87.6,42.7,87.9,43.2,88.4,43.2
			L88.4,43.2z"/>
		<path fill="#C10000" d="M91.3,42.9c0.2,0.1,0.6,0.2,1,0.2c0.4,0,0.5-0.1,0.5-0.3c0-0.2-0.2-0.3-0.6-0.5c-0.7-0.2-1.1-0.6-1.1-1.2
			c0-0.7,0.6-1.3,1.6-1.3c0.5,0,0.8,0.1,1.1,0.2L93.6,41c-0.2-0.1-0.5-0.2-0.9-0.2c-0.3,0-0.5,0.1-0.5,0.3c0,0.2,0.2,0.3,0.7,0.5
			c0.7,0.3,1,0.6,1,1.2c0,0.7-0.5,1.3-1.7,1.3c-0.5,0-1-0.1-1.2-0.2L91.3,42.9z"/>
		<path fill="#C10000" d="M98.9,42.4h-1.4v0.7H99V44h-2.7v-4h2.6v0.9h-1.5v0.6h1.4V42.4z"/>
		<path fill="#C10000" d="M102.9,43.9c-0.1,0.1-0.5,0.2-1,0.2c-1.5,0-2.2-0.9-2.2-2c0-1.4,1-2.1,2.2-2.1c0.5,0,0.8,0.1,1,0.2
			l-0.2,0.8c-0.2-0.1-0.4-0.1-0.7-0.1c-0.6,0-1.1,0.4-1.1,1.2c0,0.7,0.4,1.2,1.2,1.2c0.3,0,0.5,0,0.7-0.1L102.9,43.9z"/>
		<path fill="#C10000" d="M105.3,44.1c-1.2,0-1.9-0.9-1.9-2c0-1.2,0.8-2.1,2-2.1c1.3,0,1.9,1,1.9,2
			C107.3,43.2,106.6,44.1,105.3,44.1L105.3,44.1z M105.4,43.2c0.5,0,0.8-0.5,0.8-1.2c0-0.7-0.3-1.2-0.8-1.2c-0.5,0-0.8,0.5-0.8,1.2
			C104.5,42.7,104.9,43.2,105.4,43.2L105.4,43.2z"/>
	</g>
	<g>
		<g>
			<g>
				<g>
					<g>
						<g>
							<path fill="#211916" d="M40.7,37.8l-0.1-0.2c-0.1-0.3-1.3-6.2-2.5-11.6l-2-9.5l0.3,0c0.4,0,5.4-0.5,10-1l8.2-0.8l0,0.3
								c-0.1,0.8-1.6,20.8-1.7,21.4l0,0.2L40.7,37.8z M36.8,16.9l1.9,8.9c1.1,4.9,2.2,10.2,2.4,11.4l11.3-1.1
								c0.2-2.2,1.4-18.2,1.6-20.8L46.5,16C42.4,16.4,38,16.8,36.8,16.9z"/>
						</g>
					</g>
					<g>
						<g>
							<path fill="#211916" d="M42.3,32.3l0,0.4l5-0.5l-0.1-0.7c0,0-3.6,0.4-4.2,0.5c0.1-0.8,1.7-16.2,1.7-16.2L44,15.7L42.3,32.3z"
								/>
						</g>
					</g>
					<g>
						<g>
							<path fill="#C10000" d="M48.9,19.5c0-0.4-0.2-0.7-0.4-0.9c-0.2-0.2-0.6-0.3-0.9-0.3c-0.3,0-0.6,0.2-0.8,0.5
								c-0.2,0.3-0.3,0.6-0.3,1c0.1,0.7,0.6,1.3,1.3,1.2c0.3,0,0.6-0.2,0.8-0.5c0.2-0.2,0.3-0.6,0.3-0.9
								C48.9,19.6,48.9,19.6,48.9,19.5z"/>
						</g>
					</g>
				</g>
			</g>
		</g>
		<g>
			<g>
				<path fill="none" d="M32.9,43.8c-0.8,0-1.2,0.5-1.3,1.4h2.5C34.1,44.3,33.7,43.8,32.9,43.8z"/>
			</g>
			<g>
				<path fill="none" d="M42.1,40.9c-0.3,0.4-0.4,0.8-0.4,1.3l5.6-1.1l0.1,0.3l-5.3,1.9c0.4,0.6,1.1,0.8,2,0.8c0.4,0,0.8,0,1.2-0.1
					c1.7-0.4,3.7-2.3,4.7-3.3c-1.1-0.5-3.1-1.1-4.7-1.1c-0.3,0-0.6,0-0.9,0.1C43.3,40,42.5,40.4,42.1,40.9z"/>
			</g>
			<g>
				<path fill="none" d="M39.8,40.2c-0.9-0.8-2.8-1.1-3.6-1.2c0.3,1,0.8,2.7,1.7,3.4c0.7,0.7,1.4,0.9,2,0.7l-3.2-3.9l3.7,2.9
					c0-0.4,0-0.7,0.1-1C40.5,40.8,40.2,40.5,39.8,40.2z"/>
			</g>
			<g>
				<path fill="none" d="M41.3,44.3c-0.2,0.3-0.3,0.7-0.3,1.3v0.2c0,1.2,0.4,1.8,1.3,1.8c0.9,0,1.3-0.6,1.3-1.8v-0.2
					c0-0.1,0-0.1,0-0.2C42.6,45.3,41.8,45,41.3,44.3z"/>
			</g>
			<g>
				<path fill="none" d="M38.6,44.2c-0.2-0.1-0.5-0.2-0.7-0.3c0,0-0.1,0-0.2,0c-0.8,0-1.3,0.6-1.3,1.8v0.2c0,1.2,0.4,1.8,1.3,1.8
					c1,0,1.1-0.7,1.1-1.1v-0.2h1c0-0.1,0-0.3,0-0.5v-0.2c0-0.1,0-0.2,0-0.4h-1v-0.2C38.9,44.8,38.8,44.5,38.6,44.2z"/>
			</g>
			<g>
				<path fill="none" d="M33,47.7c0.9,0,1.3-0.5,1.3-1v-0.2h1.1c0-0.1,0-0.1,0-0.2h-3.7C31.7,47.2,32.2,47.7,33,47.7z"/>
			</g>
			<g>
				<path fill="none" d="M40,44.3C40,44.3,40,44.4,40,44.3c-0.1,0.1-0.1,0.1-0.1,0.2C40,44.4,40,44.4,40,44.3z"/>
			</g>
			<g>
				<path d="M33,48c-0.7,0-1.6-0.3-1.6-1.8l0-0.2h3.7v-0.3c0-1.6-0.8-2.6-2.1-2.6c-1.4,0-2.2,1-2.2,2.6v0.2c0,1.6,0.8,2.6,2.2,2.6
					c1.4,0,2.1-0.8,2.1-1.7h-0.5C34.5,47.4,34,48,33,48z M31.3,45.4c0.1-1.2,0.6-1.8,1.6-1.8c0.9,0,1.5,0.7,1.6,1.8l0,0.2h-3.2
					L31.3,45.4z"/>
			</g>
			<g>
				<path d="M51.1,40.3c-0.1-0.1-3.3-1.6-5.9-1.6c-0.4,0-0.8,0-1.1,0.1c-1.2,0.3-2.2,0.8-2.8,1.5l-0.1,0.1l-0.1-0.2
					c-0.2-0.3-0.4-0.5-0.7-0.8c-1.5-1.3-4.9-1.6-5-1.6l-0.4,0l0.1,0.4c0,0.1,0.6,3.2,2,4.6l0.2,0.2l-0.2,0.1c-1,0.3-1.5,1.1-1.5,2.5
					v0.2c0,1.6,0.8,2.6,2.1,2.6c1.4,0,2-0.9,2-1.7v-0.1h-0.5c0,0.4-0.2,1.3-1.4,1.3c-1,0-1.6-0.7-1.6-2.1v-0.2
					c0-1.3,0.6-2.1,1.6-2.1c0.1,0,0.2,0,0.2,0l0.1,0c0.2,0.1,0.5,0.3,0.7,0.3l0,0l0,0c0.3,0.3,0.3,0.7,0.3,1h0.5v-0.1
					c0-0.2,0-0.4-0.1-0.6l-0.1-0.2l0.2,0c0.2,0,0.3,0,0.5-0.1l0.3-0.1l-0.2,0.3c-0.2,0.4-0.3,0.9-0.3,1.5v0.2c0,1.6,0.8,2.6,2.2,2.6
					c1.4,0,2.2-1,2.2-2.6v-0.2c0-0.1,0-0.2,0-0.3l0-0.1l0.1,0c0.3,0,0.6-0.1,1-0.1c2.7-0.6,5.7-4.2,5.7-4.2l0.3-0.3L51.1,40.3z
					 M40.4,43.2l-0.2,0.1c-0.2,0.1-0.4,0.2-0.7,0.2c-0.5,0-1.2-0.3-1.8-0.9c-1-0.9-1.6-2.7-1.8-3.8l-0.1-0.2l0.2,0
					c0.9,0.1,3,0.5,4,1.3c0.4,0.4,0.7,0.7,0.9,1.1l0,0.1l0,0.1c-0.1,0.4-0.2,0.8-0.1,1.3l0,0.4l-2.1-1.7L40.4,43.2z M43.8,45.9
					c0,1.3-0.6,2.1-1.6,2.1c-1,0-1.6-0.7-1.6-2.1v-0.2c0-0.7,0.2-1.3,0.5-1.6l0.1-0.1l0.1,0.1c0.5,0.7,1.3,1.1,2.3,1.1l0.1,0l0,0.1
					c0,0.1,0,0.2,0,0.4V45.9z M50.3,40.9c-0.9,0.9-3,3.1-4.9,3.5c-0.5,0.1-0.9,0.2-1.3,0.2c-1.1,0-1.9-0.4-2.3-1.1l-0.1-0.2l3.8-1.3
					l-4,0.8l0-0.1c-0.1-0.7,0-1.2,0.4-1.7c0.5-0.6,1.3-1.1,2.5-1.3c0.3-0.1,0.6-0.1,1-0.1c1.8,0,3.9,0.8,5,1.2l0.2,0.1L50.3,40.9z"
					/>
			</g>
		</g>
		<g>
			<g>
				<path fill="none" d="M43.4,10c2.5-0.4,4.9-0.8,7.2-1.1l0.2,0l-0.1-0.2c-1.3-2.5-4.1-4.1-6.9-4.1c-0.4,0-0.9,0-1.3,0.1
					C40,5.1,38,6.6,36.8,8.7L36.7,9l5.9-1c0.2,0,0.3,0.1,0.4,0.2c0,0.1,0,0.2-0.1,0.2c0,0.1-0.1,0.1-0.2,0.1l-6.3,1.1l0,0.1
					c-0.2,0.5-0.3,1-0.4,1.5l0,0.2l0.2-0.1C38.4,10.9,40.8,10.4,43.4,10z"/>
			</g>
			<g>
				<path fill="none" d="M56.8,9.1c-0.7,0-1.5,0-2.4,0.1c-3,0.2-6.9,0.7-10.9,1.4c-4,0.7-7.8,1.6-10.7,2.4c-0.6,0.2-1.2,0.4-1.7,0.5
					l-0.9,0.3c-1.2,0.5-1.8,0.8-2,1L28,15l0.2,0.1c0.4,0.2,1.2,0.2,2.4,0.2l1,0c0.7,0,1.5-0.1,2.3-0.1c0.2,0,0.8-0.1,0.8-0.1
					l0.9-0.1c0.1,0,10.5-1.4,16.6-2.9c0.1,0,0.2,0,0.9-0.2c4.7-1.3,5.9-2,6.1-2.3l0.2-0.2l-0.2-0.1C59,9.2,58.3,9.1,56.8,9.1z
					 M53.2,11.7c-0.3,0.1-0.9,0.3-0.9,0.2c-6.1,1.5-16.6,2.9-16.6,2.9l-0.9,0.1c0,0-0.6,0.1-0.8,0.1c-0.9,0.1-1.7,0.1-2.3,0.1l-1,0
					c-1.3,0-2-0.1-2.3-0.2c0.2-0.2,0.7-0.5,1.9-1l0.9-0.3c0.5-0.2,1.1-0.3,1.7-0.5c2.9-0.8,6.7-1.7,10.7-2.4c4-0.7,7.9-1.2,10.9-1.4
					c3.4-0.2,4.5,0,4.9,0.2C58.8,9.9,57.2,10.7,53.2,11.7z"/>
			</g>
			<g>
				<path fill="none" d="M58.1,10.9c-1.1,0.4-2.6,1-4.5,1.5c-0.1,0-0.1,0-0.4,0.1c-0.2,0-0.4,0.1-0.4,0.1l0,0l0,0
					c-2.3,0.6-7.6,1.8-17.2,3c-0.1,0-0.7,0-0.9,0.2l0,0c-1,0.1-1.9,0.1-2.7,0.2l-0.9,0l-0.2,0c-0.3,0-0.7,0-1,0c-0.5,0-0.5,0-1-0.1
					l-0.4-0.1c-0.4-0.1-0.7-0.4-0.8-0.7c-0.1-0.3,0-0.6,0.3-0.7c0.8-0.5,1.1-0.7,2.1-1.1l0.9-0.3c0.4-0.1,0.8-0.3,1.3-0.4
					c0.9-0.3,2-0.6,3.2-0.9l0.1,0l0-0.1c0.2-1.9,1-3.6,2.2-4.9c1.3-1.3,2.9-2.2,4.7-2.5c0.5-0.1,1-0.1,1.5-0.1
					c1.3,0,2.6,0.3,3.8,0.9c1.6,0.8,3.1,2.3,3.8,3.9l0,0.1l0.1,0c1.2-0.1,2.3-0.2,3.2-0.3c0.7,0,1.4-0.1,2-0.1
					c2.8,0,3.2,0.5,3.3,0.9C60.1,9.9,59.6,10.3,58.1,10.9z"/>
			</g>
			<g>
				<path d="M56.8,8.5c-0.6,0-1.2,0-2,0.1c-1,0.1-2.1,0.1-3.2,0.3l-0.1,0l0-0.1c-0.8-1.6-2.2-3-3.8-3.9c-1.2-0.6-2.5-0.9-3.8-0.9
					c-0.5,0-1,0-1.5,0.1c-1.8,0.3-3.4,1.2-4.7,2.5c-1.3,1.4-2,3.1-2.2,4.9l0,0.1l-0.1,0c-1.2,0.3-2.2,0.6-3.2,0.9
					c-0.4,0.1-0.9,0.3-1.3,0.4L30,13.2c-1.1,0.4-1.4,0.5-2.1,1.1c-0.3,0.2-0.4,0.4-0.3,0.7c0.1,0.4,0.4,0.6,0.8,0.7l0.4,0.1
					c0.4,0.1,0.5,0.1,1,0.1c0.3,0,0.6,0,1,0l0.2,0l0.9,0c0.8,0,1.7-0.1,2.7-0.2l0,0c0.3-0.1,0.9-0.1,0.9-0.2
					c9.6-1.1,14.9-2.3,17.2-3l0,0l0,0c0,0,0.3-0.1,0.4-0.1c0.3-0.1,0.4-0.1,0.4-0.1c1.9-0.5,3.4-1,4.5-1.5c1.4-0.6,2-1.1,1.9-1.6
					C60,8.9,59.5,8.5,56.8,8.5z M36,11.3c0.1-0.5,0.2-1,0.4-1.5l0-0.1l6.3-1.1c0.1,0,0.2-0.1,0.2-0.1C43,8.4,43,8.3,43,8.2
					c0-0.2-0.2-0.3-0.4-0.2l-5.9,1l0.1-0.3C38,6.6,40,5.1,42.4,4.7c0.4-0.1,0.9-0.1,1.3-0.1c2.9,0,5.6,1.6,6.9,4.1l0.1,0.2l-0.2,0
					c-2.3,0.3-4.7,0.6-7.2,1.1c-2.5,0.4-4.9,0.9-7.1,1.5L36,11.5L36,11.3z M59.3,9.6c-0.2,0.2-1.4,1-6.1,2.3
					c-0.7,0.2-0.9,0.2-0.9,0.2C46.2,13.6,35.8,15,35.7,15l-0.9,0.1c0,0-0.6,0.1-0.8,0.1c-0.8,0.1-1.6,0.1-2.3,0.1l-1,0
					c-1.1,0-2-0.1-2.4-0.2L28,15l0.2-0.2c0.2-0.2,0.7-0.5,2-1l0.9-0.3c0.5-0.2,1.1-0.4,1.7-0.5c2.9-0.8,6.7-1.7,10.7-2.4
					c4-0.7,7.9-1.2,10.9-1.4c0.9-0.1,1.7-0.1,2.4-0.1c1.5,0,2.2,0.1,2.5,0.3l0.2,0.1L59.3,9.6z"/>
			</g>
		</g>
	</g>
</g>
</svg>
