<?xml version="1.0" encoding="utf-8"?>
<!-- Generator: Adobe Illustrator 18.0.0, SVG Export Plug-In . SVG Version: 6.00 Build 0)  -->
<!DOCTYPE svg PUBLIC "-//W3C//DTD SVG 1.1//EN" "http://www.w3.org/Graphics/SVG/1.1/DTD/svg11.dtd">
<svg version="1.1" id="Capa_1" xmlns="http://www.w3.org/2000/svg" xmlns:xlink="http://www.w3.org/1999/xlink" x="0px" y="0px"
	 viewBox="0 0 141.7 56.7" enable-background="new 0 0 141.7 56.7" xml:space="preserve">
<g>
	<path fill="#FFFFFF" stroke="#1D1D1B" stroke-width="0.5871" stroke-miterlimit="3.8637" d="M53.9,25.2c-0.1,0.8-1.7,21.8-1.8,22.3
		c-0.5,0.1-11.8,1.2-12.3,1.2c-0.1-0.6-4.5-20.9-4.6-21.7C35.9,26.9,53.1,25.2,53.9,25.2L53.9,25.2z"/>
	<polygon fill="#1D1D1B" points="33.5,25.4 38.2,24 31.3,6.6 48,1.6 48.3,1.5 49.8,20.5 54.1,19.2 54.3,19.9 33.7,26.1 33.5,25.4 	
		"/>
	<path fill="#C10000" d="M47.8,2.5c0.1,0.8,1.4,17.6,1.4,18.2c-0.5,0.1-9.9,3-10.4,3.1c-0.2-0.5-6.3-15.9-6.6-16.6
		C32.8,6.9,47.1,2.7,47.8,2.5L47.8,2.5z"/>
	<path fill="#1D1D1B" d="M41.3,43.3l0,0.4l5.6-0.6l-0.1-0.7c0,0-4.1,0.4-4.8,0.5c0.1-0.8,1.8-16.9,1.8-16.9L43.1,26L41.3,43.3
		L41.3,43.3z"/>
	<path fill="#C10000" d="M48.1,30c0-0.4-0.2-0.7-0.4-1c-0.3-0.2-0.6-0.4-0.9-0.3c-0.3,0-0.6,0.2-0.9,0.5c-0.2,0.3-0.3,0.7-0.3,1
		c0.1,0.8,0.7,1.4,1.4,1.3c0.3,0,0.6-0.2,0.9-0.5c0.2-0.3,0.3-0.6,0.3-0.9C48.2,30.1,48.1,30,48.1,30L48.1,30z"/>
	<path fill="#1D1D1B" d="M51,50.2l-0.2,0.1c0,0-2.8,1.2-5.6,2.3c-2.4-0.6-5.1-1.3-5.1-1.3L40,55.2c0,0,2.8-1.2,5.3-2.2
		c3.1,0.8,6.6,1.7,6.6,1.7L51,50.2L51,50.2z"/>
	<path fill="#1D1D1B" d="M31.5,41.9c0,3-0.8,5.2-2.4,6.8c-1.6,1.6-4,2.4-7.1,2.4c-3.1,0-5.5-0.8-7.1-2.4c-1.6-1.6-2.4-3.8-2.4-6.8
		V26.6H18v15c0,1.7,0.3,2.9,0.9,3.7c0.6,0.8,1.6,1.2,3.1,1.2c1.4,0,2.4-0.4,3-1.2c0.6-0.8,1-2,1-3.8v-15h5.5V41.9L31.5,41.9z"/>
	<path fill="#1D1D1B" d="M76.1,40.5c0,2.4-0.9,4.3-2.7,5.8c-1.8,1.5-4.2,2.2-7.3,2.2c-1.8,0-3.3-0.2-4.6-0.5
		c-1.3-0.3-2.5-0.8-3.7-1.3v-5.8h0.6c1.1,1,2.4,1.8,3.8,2.3c1.4,0.5,2.8,0.8,4.1,0.8c0.3,0,0.8,0,1.3-0.1c0.5-0.1,1-0.2,1.3-0.3
		c0.4-0.2,0.8-0.4,1-0.7c0.3-0.3,0.4-0.7,0.4-1.3c0-0.5-0.2-1-0.6-1.4c-0.4-0.4-1-0.7-1.7-0.9c-0.8-0.2-1.6-0.4-2.5-0.6
		c-0.9-0.2-1.7-0.4-2.5-0.7c-1.8-0.7-3.1-1.5-3.9-2.7c-0.8-1.1-1.2-2.5-1.2-4.2c0-2.2,0.9-4.1,2.7-5.5c1.8-1.4,4.1-2.1,6.9-2.1
		c1.4,0,2.8,0.2,4.2,0.5c1.4,0.3,2.6,0.7,3.6,1.2v5.5h-0.6c-0.9-0.8-1.9-1.4-3.2-2C70.2,28.2,69,28,67.7,28c-0.5,0-0.9,0-1.4,0.1
		c-0.5,0.1-0.9,0.2-1.3,0.4c-0.4,0.2-0.7,0.4-1,0.7c-0.3,0.3-0.4,0.7-0.4,1.1c0,0.6,0.2,1.1,0.6,1.5c0.4,0.3,1.2,0.6,2.4,0.9
		c0.8,0.2,1.5,0.4,2.3,0.5c0.7,0.2,1.5,0.4,2.3,0.7c1.6,0.6,2.8,1.4,3.6,2.5C75.7,37.5,76.1,38.8,76.1,40.5L76.1,40.5z"/>
	<path fill="#1D1D1B" d="M93,48h-5.2v-9c0-0.7,0-1.5-0.1-2.2c-0.1-0.7-0.2-1.3-0.3-1.6c-0.2-0.4-0.5-0.7-0.8-0.9
		c-0.4-0.2-0.9-0.3-1.5-0.3c-0.5,0-0.9,0.1-1.4,0.3c-0.5,0.2-1,0.4-1.6,0.8V48h-5.2V23h5.2v9c0.9-0.8,1.8-1.4,2.6-1.9
		c0.8-0.4,1.8-0.6,2.8-0.6c1.7,0,3.1,0.6,4.1,1.7c1,1.1,1.5,2.8,1.5,5.1V48L93,48z"/>
	<path fill="#1D1D1B" d="M104.3,44.3c-0.4,0.2-0.9,0.3-1.3,0.3c-0.5,0-1-0.1-1.5-0.3c-0.4-0.2-0.8-0.5-1.1-0.9
		c-0.3-0.4-0.6-1-0.7-1.7c-0.2-0.7-0.2-1.6-0.2-2.6c0-1.1,0.1-2,0.3-2.8c0.2-0.7,0.4-1.3,0.8-1.7c0.4-0.5,0.7-0.8,1.1-0.9
		c0.4-0.2,0.8-0.2,1.3-0.2c0.5,0,1,0.1,1.4,0.3c0.4,0.2,0.8,0.5,1.1,0.9c0.3,0.4,0.5,1,0.7,1.7c0.2,0.7,0.3,1.6,0.3,2.7
		c0,1.1-0.1,2-0.3,2.7c-0.2,0.7-0.4,1.2-0.8,1.7C105.1,43.8,104.7,44.1,104.3,44.3L104.3,44.3z M109.4,32c-1.5-1.7-3.7-2.6-6.5-2.6
		c-2.8,0-4.9,0.9-6.5,2.6c-1.5,1.7-2.3,4.1-2.3,7c0,3,0.8,5.3,2.3,7c1.5,1.7,3.7,2.6,6.5,2.6s4.9-0.9,6.5-2.6c1.5-1.7,2.3-4.1,2.3-7
		C111.7,36,111,33.7,109.4,32L109.4,32z"/>
	<path fill="#1D1D1B" d="M122.9,42.9c-0.7,0.9-1.7,1.3-3,1.3c-0.4,0-0.8,0-1.2-0.1c-0.4,0-0.8-0.1-1.1-0.3v-9.1
		c0.5-0.3,1-0.6,1.5-0.7c0.5-0.2,1-0.3,1.5-0.3c1.1,0,2,0.4,2.5,1.2c0.5,0.8,0.8,2.1,0.8,3.8C123.9,40.7,123.6,42,122.9,42.9
		L122.9,42.9z M127.6,31.9c-1.1-1.7-2.7-2.5-4.7-2.5c-1.1,0-2,0.2-2.8,0.7c-0.8,0.4-1.6,1-2.4,1.7v-1.9h-5.2v24.7h5.2v-7.5
		c0.7,0.4,1.3,0.7,2,0.9c0.6,0.2,1.4,0.3,2.3,0.3c1,0,1.9-0.2,2.8-0.6c0.9-0.4,1.6-1.1,2.3-1.9c0.7-0.8,1.2-1.8,1.6-3
		c0.4-1.2,0.6-2.6,0.6-4.1C129.3,35.8,128.7,33.6,127.6,31.9L127.6,31.9z"/>
</g>
</svg>
