<?xml version="1.0" encoding="utf-8"?>
<!-- Generator: Adobe Illustrator 16.0.0, SVG Export Plug-In . SVG Version: 6.00 Build 0)  -->
<!DOCTYPE svg PUBLIC "-//W3C//DTD SVG 1.1//EN" "http://www.w3.org/Graphics/SVG/1.1/DTD/svg11.dtd">
<svg version="1.1" id="Layer_1" xmlns="http://www.w3.org/2000/svg" xmlns:xlink="http://www.w3.org/1999/xlink" x="0px" y="0px"
	 width="26.333px" height="27.9px" viewBox="0 0 26.333 27.9" enable-background="new 0 0 26.333 27.9" xml:space="preserve">
<g>
	<g>
		<path fill="#4B4B4B" d="M23.771,22.174l-6.02-5.976c0.044-0.088,0.088-0.22,0.132-0.396c0.615-1.054,1.011-2.24,1.143-3.471
			c0.044-0.264,0.044-0.57,0.044-0.878c0-0.923-0.176-1.89-0.483-2.769c-0.396-1.186-1.099-2.24-1.977-3.163
			C13.402,2.228,7.911,2.228,4.66,5.479C3.561,6.577,2.858,7.852,2.462,9.301c-0.396,1.45-0.396,2.899,0,4.35
			s1.099,2.724,2.197,3.822c1.625,1.626,3.778,2.46,5.975,2.46c1.714,0,3.207-0.482,4.657-1.361l0.22-0.132l6.063,6.019
			c0.22,0.22,0.483,0.352,0.703,0.396c0.044,0,0.088,0,0.132,0c0.176,0,0.308-0.044,0.439-0.132c0.176-0.088,0.352-0.22,0.527-0.439
			l0.264-0.264c0.176-0.176,0.308-0.352,0.439-0.527c0.088-0.132,0.088-0.263,0.088-0.482v-0.088
			C24.167,22.657,24.035,22.438,23.771,22.174L23.771,22.174z M17.356,13.255c-0.308,1.187-0.922,2.241-1.801,3.119
			c-1.318,1.318-3.031,2.021-4.877,2.021c-1.845,0-3.559-0.747-4.921-2.021c-2.68-2.504-2.68-7.249-0.044-9.797
			c1.318-1.274,3.076-2.065,4.921-2.065c1.934,0,3.559,0.703,4.877,2.065c0.879,0.879,1.493,1.933,1.801,3.119
			C17.664,10.883,17.664,12.069,17.356,13.255L17.356,13.255z"/>
	</g>
</g>
</svg>
