<?xml version="1.0" encoding="utf-8"?>
<!-- Generator: Adobe Illustrator 16.0.0, SVG Export Plug-In . SVG Version: 6.00 Build 0)  -->
<!DOCTYPE svg PUBLIC "-//W3C//DTD SVG 1.1//EN" "http://www.w3.org/Graphics/SVG/1.1/DTD/svg11.dtd">
<svg version="1.1" id="Layer_1" xmlns="http://www.w3.org/2000/svg" xmlns:xlink="http://www.w3.org/1999/xlink" x="0px" y="0px"
	 width="26.333px" height="27.9px" viewBox="0 0 26.333 27.9" enable-background="new 0 0 26.333 27.9" xml:space="preserve">
<g>
	<path fill="#575756" d="M13.167,3.223c3.036,0,5.808,1.232,7.788,3.212c1.979,1.98,3.212,4.752,3.212,7.788
		c0,3.036-1.232,5.809-3.212,7.788c-1.98,1.98-4.752,3.212-7.788,3.212s-5.808-1.231-7.788-3.212
		c-1.98-1.979-3.212-4.752-3.212-7.788c0-3.036,1.232-5.808,3.212-7.788C7.402,4.456,10.13,3.223,13.167,3.223L13.167,3.223z
		 M20.338,7.052c-1.848-1.848-4.356-2.992-7.172-2.992c-2.772,0.044-5.324,1.188-7.172,2.992c-1.804,1.848-2.948,4.4-2.948,7.172
		c0,2.816,1.144,5.324,2.992,7.172c1.848,1.849,4.356,2.948,7.172,2.948c2.815,0,5.324-1.144,7.172-2.948
		c1.848-1.848,2.948-4.355,2.948-7.172C23.331,11.451,22.186,8.9,20.338,7.052L20.338,7.052z"/>
	<path fill="#575756" d="M10.35,14.223c0-1.54,1.276-2.816,2.816-2.816s2.815,1.276,2.815,2.816c0,1.54-1.275,2.816-2.815,2.816
		S10.35,15.807,10.35,14.223L10.35,14.223z M16.115,8.724h-5.853c-1.452,0-2.596,1.188-2.596,2.596v5.808
		c0,1.452,1.188,2.596,2.596,2.596h5.853c1.451,0,2.596-1.188,2.596-2.596V11.32C18.71,9.912,17.522,8.724,16.115,8.724
		L16.115,8.724z M10.262,9.384h5.853c1.1,0,1.936,0.88,1.936,1.936v5.808c0,1.056-0.88,1.936-1.936,1.936h-5.853
		c-1.1,0-1.936-0.88-1.936-1.936V11.32C8.326,10.263,9.206,9.384,10.262,9.384L10.262,9.384z M16.686,10.219
		c-0.308,0-0.571,0.264-0.571,0.572s0.264,0.572,0.571,0.572c0.309,0,0.572-0.264,0.572-0.572
		C17.258,10.44,16.995,10.219,16.686,10.219L16.686,10.219z M16.73,14.223c0-1.98-1.584-3.564-3.563-3.564
		c-1.98,0-3.564,1.584-3.564,3.564c0,1.98,1.584,3.564,3.564,3.564C15.146,17.788,16.73,16.204,16.73,14.223L16.73,14.223z"/>
</g>
</svg>
