<?xml version="1.0" encoding="utf-8"?>
<!-- Generator: Adobe Illustrator 16.0.0, SVG Export Plug-In . SVG Version: 6.00 Build 0)  -->
<!DOCTYPE svg PUBLIC "-//W3C//DTD SVG 1.1//EN" "http://www.w3.org/Graphics/SVG/1.1/DTD/svg11.dtd">
<svg version="1.1" id="Capa_1" xmlns="http://www.w3.org/2000/svg" xmlns:xlink="http://www.w3.org/1999/xlink" x="0px" y="0px"
	 width="22px" height="22px" viewBox="295 385 22 22" enable-background="new 295 385 22 22" xml:space="preserve">
<g>
	<g>
		<path fill="#FFFFFF" d="M313.395,395.78c-0.352,0-0.615,0.264-0.615,0.615v8.658h-4.527v-3.516c0-0.352-0.264-0.615-0.615-0.615
			h-3.252c-0.352,0-0.66,0.308-0.66,0.615v3.516h-4.439v-8.351c0-0.352-0.264-0.615-0.615-0.615c-0.352,0-0.616,0.264-0.616,0.615
			v9.011c0,0.352,0.264,0.615,0.616,0.615h5.758c0.352,0,0.615-0.264,0.615-0.615v-3.517h2.022v3.517
			c0,0.352,0.264,0.615,0.615,0.615h5.714c0.352,0,0.615-0.264,0.615-0.615v-9.318C313.966,396.044,313.702,395.78,313.395,395.78
			L313.395,395.78z"/>
		<path fill="#FFFFFF" d="M316.823,396.264l-5.011-5.011v-3.429c0-0.352-0.308-0.615-0.659-0.615s-0.615,0.264-0.615,0.615v2.154
			l-4.088-4.131c-0.132-0.132-0.264-0.176-0.44-0.176s-0.308,0.088-0.439,0.176l-10.373,10.329c-0.264,0.264-0.264,0.659,0,0.879
			c0.22,0.264,0.616,0.264,0.879,0l9.933-9.89l9.89,9.978c0.088,0.088,0.264,0.176,0.439,0.176s0.308-0.044,0.439-0.176
			C317.043,396.923,317.087,396.527,316.823,396.264L316.823,396.264z"/>
	</g>
</g>
</svg>
